{
    "Samples": [
        {
            "Message": "POST /sandpit-ths-outbound HTTP/1.1\r\nHost: 10.0.1.200:6544\r\nUser-Agent: GuzzleHttp/6.5.5 curl/8.3.0 PHP/7.4.33\r\nContent-Type: application/json\r\nContent-Length: 4998\r\n\r\n[{\"type\":\"appointment\",\"appointment\":{\"id\":22761191,\"parent_id\":null,\"facility_id\":109,\"user_id\":11813175,\"facility_type\":\"f\",\"consultant_id\":0,\"reservation_date\":\"2023-12-19\",\"reservation_time\":\"13:45\",\"reservation_end_time\":\"14:30\",\"reason_id\":5831,\"comments\":null,\"recurrence\":\"N\",\"recurrence_end_date\":\"0000-00-00\",\"date\":\"2023-12-11 15:45:27\",\"status\":\"active\",\"attended_by\":0,\"is_attended\":\"no\",\"google_cal_id\":\"ENDO_NWRH\",\"booking_user_id\":0,\"location_pref\":\"44756785\",\"refer_id\":0,\"source\":\"h\",\"print\":\"N\",\"stats\":\"y\",\"modified\":\"2023-12-12 10:43:02\",\"modified_source\":\"b\",\"episode_no\":null,\"notified\":\"N\",\"refer_type\":null,\"cream\":\"N\",\"gp_name\":null,\"secretary\":99,\"quality\":\"Y\",\"hl7_id\":\"7281377\",\"clinic_referred_from\":null,\"bay\":1,\"capacity_sync\":\"N\",\"is_urgent\":0,\"confirm_date\":null,\"confirmed_by\":null,\"service_provider_id\":null,\"appointment_group\":null,\"auto_marked_dna_at\":null,\"dna_response_token\":\"78e397bf033c9aa287a63edeaeff72a915cb94cf6e7e024b91b70085dd915a7e98233211c3c689625f83ce670a56c96866fa57b0856ac462c809c9d9c054d43d\",\"patient_group_id\":null,\"referral_document\":null,\"source_kiosk_facility_id\":null,\"is_additional_consultant_of\":null,\"checkin_code\":878547,\"start\":\"20231219134500\",\"end\":\"20231219143000\",\"duration\":45,\"custom_fields\":[]},\"patient_flow\":{\"check_in_time\":\"20231211154828\",\"complete_time\":\"false\",\"current_stage\":\"DNA\"},\"order\":[],\"patient\":{\"id\":11813175,\"mobile\":\"0000000000\",\"home_phone\":\"0000000000\",\"firstname\":\"Maxine\",\"surname\":\"Salter\",\"email\":\"15717215test@sandpit.com\",\"bcrypt_check\":\"n\",\"reactivate_code_sent\":0,\"user_type\":\"N\",\"notify\":0,\"created\":\"2023-11-30 05:13:12\",\"modified\":\"2023-12-11 04:49:16\",\"modified_by\":0,\"status\":\"active\",\"old_password\":null,\"regcode\":null,\"pwd_reset_time\":0,\"is_pwd_expired\":0,\"parent\":0,\"relationship\":null,\"Date_of_Birth\":\"26\\/07\\/1962\",\"Home_Address\":\"7320\",\"Employee_Number\":null,\"paygroup\":null,\"verified\":\"n\",\"online_regcode\":null,\"Gender\":\"F\",\"Address_1\":\"15452480 Sandpit St\",\"Address_2\":\"\",\"Address_3\":\"Cooee\",\"Address_4\":\"TAS\",\"Address_5\":\"\",\"country\":null,\"address_coordinates\":null,\"facility_link_id\":0,\"sms_verification\":\"N\",\"Chart_Number\":null,\"mrn\":\"SQ104243981\",\"history_no\":null,\"company\":null,\"sight\":\"N\",\"hearing\":\"N\",\"wheelchair\":\"N\",\"immobility\":\"N\",\"groupsave\":\"N\",\"learning_disabilities\":\"N\",\"requires_translator\":\"N\",\"fainting\":\"N\",\"needle_phobia\":\"N\",\"nhs_number\":null,\"gp_name\":\"\",\"gp_details\":1000,\"cost_centre\":null,\"display\":\"Y\",\"callback\":\"N\",\"key_code\":null,\"menopause_stage\":null,\"car_registration\":null,\"national_governing_body\":null,\"event\":null,\"title\":\"MRS\",\"salutation_preference\":\"personal\",\"registration_source\":null,\"ukey\":\"sq-c86e421b-bec4-498a-ae55-9f887db61bf8\",\"ihi_number\":null,\"speech_impairment\":null,\"hoist\":null,\"birth_date_field\":\"26\",\"birth_month_field\":\"07\",\"birth_year_field\":\"1962\",\"age\":61,\"medical_reference_numbers\":[],\"name\":\"Maxine Salter\",\"address\":\"15452480 Sandpit St, Cooee, TAS\",\"patient\":\"Maxine Salter\",\"additional_info\":{\"aka_firstname\":null,\"aka_surname\":null,\"middlename\":null,\"opt_out_result\":\"SMS\",\"own_number\":null,\"screening_cohort\":null,\"speciality_id\":null,\"nationality\":null,\"designated_contact_firstname\":null,\"designated_contact_surname\":null,\"designated_contact_mobile\":null,\"translator_language\":null,\"read_sign_language\":null,\"alternative_number\":null,\"screening_id\":null,\"covid_19_id\":null,\"deceased_date\":null,\"archived_box_number\":null,\"pps_number\":null,\"accessibility\":null,\"covid19status\":null,\"covid19vax\":null,\"infection\":null,\"allergies\":null,\"Marital_Status\":null,\"Religion\":null,\"Insurance_Code\":\"\",\"Policy_No\":\"\",\"Ins_Copay\":null,\"act_as_nok\":0,\"meditech_relationship\":null,\"drug_allergies\":null,\"duplicate_account\":false,\"mfa_code\":null,\"mfa_code_expires_at\":null},\"formatted_dob\":\"19620726\",\"gp_firstname\":\"\",\"gp_mcn\":\"\",\"custom_fields\":[]},\"referral\":{\"id\":12653942,\"facility_id\":12,\"user_id\":11813175,\"date_referred\":\"2023-11-08 00:00:00\",\"date_limit\":null,\"category_id\":439,\"speciality_id\":651,\"referral_source_id\":410,\"referral_source_name\":\"DR Minou Dashti\",\"status\":\"follow_up\",\"condition\":\"3395\",\"comments\":\"HL7 Referral\",\"is_staff\":\"N\",\"is_priority\":\"N\",\"modified\":\"2023-12-12 10:43:02\",\"modified_by\":1,\"created\":\"2023-12-11 15:44:10\",\"created_by\":22,\"letter_sent_date\":null,\"assigned_date\":null,\"speciality_group_id\":null,\"document\":null,\"funding\":null,\"authorisation\":0,\"previous_admissions\":null,\"suicide_attempts\":null,\"others_care\":null,\"hear_about_us\":null,\"patient_type\":null,\"created_sms_sent\":1,\"book_appt_sms_num_sent\":0,\"pas_verified\":0,\"seeing_other_mental_health_professional\":null,\"current_medication\":null,\"call_type\":null,\"gp_details_id\":null,\"hopstial\":null,\"last_viewed\":null,\"control_id\":\"7281377\",\"covid_19_id\":\"1897398\",\"print_label\":null,\"residential_id\":null,\"facility_type\":null,\"referral_type\":null,\"parent_id\":0,\"date_accepted\":null,\"condition_notes_string\":\"3395, 3395, 3395\",\"provider_id\":null,\"admission_source\":null,\"pivot\":{\"res_id\":22761191,\"ewaiting_referral_id\":12653942}}}]",
            "Name": ""
        },
        {
            "Message": "POST /sandpit-ths-outbound HTTP/1.1\r\nHost: 10.0.1.200:6544\r\nUser-Agent: GuzzleHttp/6.5.5 curl/8.3.0 PHP/7.4.33\r\nContent-Type: application/json\r\nContent-Length: 9817\r\n\r\n[{\"type\":\"appointment\",\"appointment\":{\"id\":22761692,\"parent_id\":22761691,\"facility_id\":109,\"user_id\":11813209,\"facility_type\":\"f\",\"consultant_id\":0,\"reservation_date\":\"2023-12-20\",\"reservation_time\":\"14:30\",\"reservation_end_time\":\"15:00\",\"reason_id\":5833,\"comments\":\"Follow up from 2023-12-19\",\"recurrence\":\"N\",\"recurrence_end_date\":\"0000-00-00\",\"date\":\"2023-12-18 16:46:01\",\"status\":\"cancelled\",\"attended_by\":0,\"is_attended\":\"yes\",\"google_cal_id\":null,\"booking_user_id\":0,\"location_pref\":null,\"refer_id\":0,\"source\":\"b\",\"print\":\"N\",\"stats\":\"y\",\"modified\":\"2023-12-19 11:42:38\",\"modified_source\":\"r\",\"episode_no\":null,\"notified\":\"N\",\"refer_type\":null,\"cream\":\"N\",\"gp_name\":null,\"secretary\":99,\"quality\":\"Y\",\"hl7_id\":null,\"clinic_referred_from\":null,\"bay\":1,\"capacity_sync\":\"N\",\"is_urgent\":0,\"confirm_date\":null,\"confirmed_by\":null,\"service_provider_id\":null,\"appointment_group\":null,\"auto_marked_dna_at\":null,\"dna_response_token\":null,\"patient_group_id\":null,\"referral_document\":null,\"source_kiosk_facility_id\":null,\"is_additional_consultant_of\":null,\"checkin_code\":237979,\"start\":\"20231220143000\",\"end\":\"20231220150000\",\"duration\":30,\"custom_fields\":[]},\"patient_flow\":{\"check_in_time\":\"false\",\"complete_time\":\"false\",\"current_stage\":null},\"order\":[],\"patient\":{\"id\":11813209,\"mobile\":\"61423032383\",\"home_phone\":\"\",\"firstname\":\"June\",\"surname\":\"Bye\",\"email\":\"pascale.griffiths@dedalus.com\",\"bcrypt_check\":\"n\",\"reactivate_code_sent\":0,\"user_type\":\"N\",\"notify\":0,\"created\":\"2023-11-30 05:13:36\",\"modified\":\"2023-12-19 08:55:26\",\"modified_by\":0,\"status\":\"active\",\"old_password\":null,\"regcode\":null,\"pwd_reset_time\":0,\"is_pwd_expired\":0,\"parent\":0,\"relationship\":null,\"Date_of_Birth\":\"01\\/06\\/1961\",\"Home_Address\":\"7310\",\"Employee_Number\":null,\"paygroup\":null,\"verified\":\"n\",\"online_regcode\":null,\"Gender\":\"F\",\"Address_1\":\"1252 Sandpit St\",\"Address_2\":\"\",\"Address_3\":\"\",\"Address_4\":\"East Devonport\",\"Address_5\":\"TAS\",\"country\":null,\"address_coordinates\":null,\"facility_link_id\":0,\"sms_verification\":\"N\",\"Chart_Number\":null,\"mrn\":\"SQ101389303\",\"history_no\":null,\"company\":null,\"sight\":\"Y\",\"hearing\":\"N\",\"wheelchair\":\"N\",\"immobility\":\"N\",\"groupsave\":\"N\",\"learning_disabilities\":\"N\",\"requires_translator\":\"N\",\"fainting\":\"N\",\"needle_phobia\":\"N\",\"nhs_number\":null,\"gp_name\":\"Practice Valley Road Medical\",\"gp_details\":27248,\"cost_centre\":null,\"display\":\"Y\",\"callback\":\"N\",\"key_code\":null,\"menopause_stage\":null,\"car_registration\":null,\"national_governing_body\":null,\"event\":null,\"title\":\"MRS\",\"salutation_preference\":\"personal\",\"registration_source\":null,\"ukey\":\"sq-b379f590-289f-4f7a-a4a1-eaee0d455325\",\"ihi_number\":null,\"speech_impairment\":\"N\",\"hoist\":\"N\",\"birth_date_field\":\"01\",\"birth_month_field\":\"06\",\"birth_year_field\":\"1961\",\"age\":62,\"medical_reference_numbers\":[],\"name\":\"June Bye\",\"address\":\"1252 Sandpit St, East Devonport, TAS\",\"patient\":\"June Bye\",\"additional_info\":{\"aka_firstname\":null,\"aka_surname\":null,\"middlename\":null,\"opt_out_result\":\"SMS\",\"own_number\":null,\"screening_cohort\":null,\"speciality_id\":null,\"nationality\":null,\"designated_contact_firstname\":null,\"designated_contact_surname\":null,\"designated_contact_mobile\":null,\"translator_language\":null,\"read_sign_language\":null,\"alternative_number\":null,\"screening_id\":null,\"covid_19_id\":null,\"deceased_date\":null,\"archived_box_number\":null,\"pps_number\":null,\"accessibility\":null,\"covid19status\":null,\"covid19vax\":null,\"infection\":null,\"allergies\":null,\"Marital_Status\":null,\"Religion\":null,\"Insurance_Code\":\"\",\"Policy_No\":\"\",\"Ins_Copay\":null,\"act_as_nok\":0,\"meditech_relationship\":null,\"drug_allergies\":null,\"duplicate_account\":false,\"mfa_code\":null,\"mfa_code_expires_at\":null},\"formatted_dob\":\"19610601\",\"gp_firstname\":\"Practice\",\"gp_mcn\":\"5456\",\"custom_fields\":[]},\"referral\":{\"id\":12654015,\"facility_id\":12,\"user_id\":11813209,\"date_referred\":\"2023-08-23 00:00:00\",\"date_limit\":null,\"category_id\":439,\"speciality_id\":654,\"referral_source_id\":410,\"referral_source_name\":\"DR Kiran Essrani\",\"status\":\"active\",\"condition\":\"\",\"comments\":\"HL7 Referral\",\"is_staff\":\"N\",\"is_priority\":\"N\",\"modified\":\"2023-12-19 11:42:40\",\"modified_by\":6,\"created\":\"2023-12-18 14:59:49\",\"created_by\":22,\"letter_sent_date\":null,\"assigned_date\":null,\"speciality_group_id\":null,\"document\":null,\"funding\":null,\"authorisation\":0,\"previous_admissions\":null,\"suicide_attempts\":null,\"others_care\":null,\"hear_about_us\":null,\"patient_type\":null,\"created_sms_sent\":1,\"book_appt_sms_num_sent\":0,\"pas_verified\":0,\"seeing_other_mental_health_professional\":null,\"current_medication\":null,\"call_type\":null,\"gp_details_id\":null,\"hopstial\":null,\"last_viewed\":null,\"control_id\":\"7159803\",\"covid_19_id\":\"1897445\",\"print_label\":null,\"residential_id\":null,\"facility_type\":null,\"referral_type\":null,\"parent_id\":0,\"date_accepted\":null,\"condition_notes_string\":\"\",\"provider_id\":null,\"admission_source\":null,\"pivot\":{\"res_id\":22761692,\"ewaiting_referral_id\":12654015}}},{\"type\":\"appointment\",\"appointment\":{\"id\":22761713,\"parent_id\":22761710,\"facility_id\":109,\"user_id\":11813224,\"facility_type\":\"f\",\"consultant_id\":0,\"reservation_date\":\"2023-12-20\",\"reservation_time\":\"15:00\",\"reservation_end_time\":\"15:30\",\"reason_id\":5833,\"comments\":\"Follow up from 2023-12-19\",\"recurrence\":\"N\",\"recurrence_end_date\":\"0000-00-00\",\"date\":\"2023-12-19 11:41:47\",\"status\":\"cancelled\",\"attended_by\":0,\"is_attended\":\"yes\",\"google_cal_id\":null,\"booking_user_id\":0,\"location_pref\":null,\"refer_id\":0,\"source\":\"b\",\"print\":\"N\",\"stats\":\"y\",\"modified\":\"2023-12-19 11:42:46\",\"modified_source\":\"r\",\"episode_no\":null,\"notified\":\"N\",\"refer_type\":null,\"cream\":\"N\",\"gp_name\":null,\"secretary\":99,\"quality\":\"Y\",\"hl7_id\":null,\"clinic_referred_from\":null,\"bay\":1,\"capacity_sync\":\"N\",\"is_urgent\":0,\"confirm_date\":null,\"confirmed_by\":null,\"service_provider_id\":null,\"appointment_group\":null,\"auto_marked_dna_at\":null,\"dna_response_token\":null,\"patient_group_id\":null,\"referral_document\":null,\"source_kiosk_facility_id\":null,\"is_additional_consultant_of\":null,\"checkin_code\":743207,\"start\":\"20231220150000\",\"end\":\"20231220153000\",\"duration\":30,\"custom_fields\":[]},\"patient_flow\":{\"check_in_time\":\"false\",\"complete_time\":\"false\",\"current_stage\":null},\"order\":[],\"patient\":{\"id\":11813224,\"mobile\":\"0000000000\",\"home_phone\":\"0000000000\",\"firstname\":\"Maureen\",\"surname\":\"Matchett\",\"email\":\"\",\"bcrypt_check\":\"n\",\"reactivate_code_sent\":0,\"user_type\":\"N\",\"notify\":0,\"created\":\"2023-11-30 06:05:37\",\"modified\":\"2023-12-18 22:24:14\",\"modified_by\":0,\"status\":\"active\",\"old_password\":null,\"regcode\":null,\"pwd_reset_time\":0,\"is_pwd_expired\":0,\"parent\":0,\"relationship\":null,\"Date_of_Birth\":\"30\\/04\\/1940\",\"Home_Address\":\"7321\",\"Employee_Number\":null,\"paygroup\":null,\"verified\":\"n\",\"online_regcode\":null,\"Gender\":\"F\",\"Address_1\":\"11409500 Sandpit St\",\"Address_2\":\"\",\"Address_3\":\"Waratah\",\"Address_4\":\"TAS\",\"Address_5\":\"\",\"country\":null,\"address_coordinates\":null,\"facility_link_id\":0,\"sms_verification\":\"N\",\"Chart_Number\":null,\"mrn\":\"SQ201630512\",\"history_no\":null,\"company\":null,\"sight\":\"N\",\"hearing\":\"N\",\"wheelchair\":\"N\",\"immobility\":\"N\",\"groupsave\":\"N\",\"learning_disabilities\":\"N\",\"requires_translator\":\"N\",\"fainting\":\"N\",\"needle_phobia\":\"N\",\"nhs_number\":null,\"gp_name\":\"Thirunavukkarasu (Thiru) Thirukkumaran\",\"gp_details\":27253,\"cost_centre\":null,\"display\":\"Y\",\"callback\":\"N\",\"key_code\":null,\"menopause_stage\":null,\"car_registration\":null,\"national_governing_body\":null,\"event\":null,\"title\":\"MRS\",\"salutation_preference\":\"personal\",\"registration_source\":null,\"ukey\":\"sq-fa5b7880-6553-4742-ad63-6b2f123da5b5\",\"ihi_number\":null,\"speech_impairment\":null,\"hoist\":null,\"birth_date_field\":\"30\",\"birth_month_field\":\"04\",\"birth_year_field\":\"1940\",\"age\":83,\"medical_reference_numbers\":[],\"name\":\"Maureen Matchett\",\"address\":\"11409500 Sandpit St, Waratah, TAS\",\"patient\":\"Maureen Matchett\",\"additional_info\":{\"aka_firstname\":null,\"aka_surname\":null,\"middlename\":null,\"opt_out_result\":\"SMS\",\"own_number\":null,\"screening_cohort\":null,\"speciality_id\":null,\"nationality\":null,\"designated_contact_firstname\":null,\"designated_contact_surname\":null,\"designated_contact_mobile\":null,\"translator_language\":null,\"read_sign_language\":null,\"alternative_number\":null,\"screening_id\":null,\"covid_19_id\":null,\"deceased_date\":null,\"archived_box_number\":null,\"pps_number\":null,\"accessibility\":null,\"covid19status\":null,\"covid19vax\":null,\"infection\":null,\"allergies\":null,\"Marital_Status\":null,\"Religion\":null,\"Insurance_Code\":\"\",\"Policy_No\":\"\",\"Ins_Copay\":null,\"act_as_nok\":0,\"meditech_relationship\":null,\"drug_allergies\":null,\"duplicate_account\":false,\"mfa_code\":null,\"mfa_code_expires_at\":null},\"formatted_dob\":\"19400430\",\"gp_firstname\":\"Thirunavukkarasu (Thiru)\",\"gp_mcn\":\"10753\",\"custom_fields\":[]},\"referral\":{\"id\":12653991,\"facility_id\":12,\"user_id\":11813224,\"date_referred\":\"2023-11-16 00:00:00\",\"date_limit\":null,\"category_id\":439,\"speciality_id\":654,\"referral_source_id\":410,\"referral_source_name\":\"DR Thirunavukkarasu (Thiru) Thirukkumaran\",\"status\":\"active\",\"condition\":\"\",\"comments\":\"HL7 Referral\",\"is_staff\":\"N\",\"is_priority\":\"N\",\"modified\":\"2023-12-19 11:42:46\",\"modified_by\":6,\"created\":\"2023-12-14 07:48:46\",\"created_by\":22,\"letter_sent_date\":null,\"assigned_date\":null,\"speciality_group_id\":null,\"document\":null,\"funding\":null,\"authorisation\":0,\"previous_admissions\":null,\"suicide_attempts\":null,\"others_care\":null,\"hear_about_us\":null,\"patient_type\":null,\"created_sms_sent\":1,\"book_appt_sms_num_sent\":0,\"pas_verified\":0,\"seeing_other_mental_health_professional\":null,\"current_medication\":null,\"call_type\":null,\"gp_details_id\":null,\"hopstial\":null,\"last_viewed\":null,\"control_id\":\"7292374\",\"covid_19_id\":\"1897424\",\"print_label\":null,\"residential_id\":null,\"facility_type\":null,\"referral_type\":null,\"parent_id\":0,\"date_accepted\":null,\"condition_notes_string\":\"\",\"provider_id\":null,\"admission_source\":null,\"pivot\":{\"res_id\":22761713,\"ewaiting_referral_id\":12653991}}}]",
            "Name": ""
        },
        {
            "Message": "POST /sandpit-ths-outbound HTTP/1.1\r\nHost: 10.0.1.200:6544\r\nUser-Agent: GuzzleHttp/6.5.5 curl/8.3.0 PHP/7.4.33\r\nContent-Type: application/json\r\nContent-Length: 6657\r\n\r\n[{\"patient\":{\"title\":\"\",\"firstname\":\"Sandra\",\"surname\":\"Radford\",\"Date_of_Birth\":\"18\\/10\\/1950\",\"Gender\":\"F\",\"Address_1\":\"ad11x\",\"Address_2\":\"ad22x\",\"Address_3\":\"ad33x\",\"Address_4\":\"TAS\",\"Address_5\":\"\",\"Home_Address\":\"7316\",\"mobile\":\"61483023227\",\"home_phone\":\"61483023227\",\"mrn\":\"SQ104122821\",\"email\":\"patrick.mcgrane@dedalus.com\",\"gp_firstname\":\"Practice\",\"gp_mcn\":\"5413\",\"id\":11813034,\"aka_firstname\":null,\"aka_surname\":null,\"middlename\":null,\"opt_out_result\":\"SMS\",\"own_number\":null,\"screening_cohort\":null,\"speciality_id\":null,\"nationality\":null,\"designated_contact_firstname\":null,\"designated_contact_surname\":null,\"designated_contact_mobile\":null,\"translator_language\":null,\"read_sign_language\":null,\"alternative_number\":null,\"screening_id\":null,\"covid_19_id\":null,\"deceased_date\":null,\"archived_box_number\":null,\"pps_number\":null,\"accessibility\":null,\"covid19status\":null,\"covid19vax\":null,\"infection\":null,\"allergies\":null,\"Marital_Status\":null,\"Religion\":null,\"Insurance_Code\":\"\",\"Policy_No\":\"\",\"Ins_Copay\":null,\"act_as_nok\":0,\"meditech_relationship\":null,\"drug_allergies\":null,\"duplicate_account\":false,\"mfa_code\":null,\"mfa_code_expires_at\":null},\"forms\":[],\"next_of_kin\":{\"title\":\"Mr\",\"firstname\":\"Shaneooxxxzzz\",\"surname\":\"Radfordooxxzzz\",\"Date_of_Birth\":\"01\\/01\\/2000\",\"Gender\":\"F\",\"Address_1\":\"10007553 Sandpit St\",\"Address_2\":\"\",\"Address_3\":null,\"Address_4\":\"TAS\",\"Address_5\":\"\",\"Home_Address\":\"7316\",\"mobile\":\"0000000000\",\"home_phone\":\"0000000000\",\"mrn\":null,\"email\":null},\"appointment\":null,\"referral\":{\"provider_id\":\"0\",\"admission_source\":null,\"registration_type\":\"0\"},\"order\":[],\"patient_flow\":{\"check_in_time\":\"false\",\"complete_time\":\"false\"}},{\"patient\":{\"title\":\"\",\"firstname\":\"Sandra\",\"surname\":\"Radford\",\"Date_of_Birth\":\"18\\/10\\/1950\",\"Gender\":\"F\",\"Address_1\":\"ad11x\",\"Address_2\":\"ad22x\",\"Address_3\":\"ad33x\",\"Address_4\":\"TAS\",\"Address_5\":\"\",\"Home_Address\":\"7316\",\"mobile\":\"61483023227\",\"home_phone\":\"61483023227\",\"mrn\":\"SQ104122821\",\"email\":\"patrick.mcgrane@dedalus.com\",\"gp_firstname\":\"Practice\",\"gp_mcn\":\"5413\",\"id\":11813034,\"aka_firstname\":null,\"aka_surname\":null,\"middlename\":null,\"opt_out_result\":\"SMS\",\"own_number\":null,\"screening_cohort\":null,\"speciality_id\":null,\"nationality\":null,\"designated_contact_firstname\":null,\"designated_contact_surname\":null,\"designated_contact_mobile\":null,\"translator_language\":null,\"read_sign_language\":null,\"alternative_number\":null,\"screening_id\":null,\"covid_19_id\":null,\"deceased_date\":null,\"archived_box_number\":null,\"pps_number\":null,\"accessibility\":null,\"covid19status\":null,\"covid19vax\":null,\"infection\":null,\"allergies\":null,\"Marital_Status\":null,\"Religion\":null,\"Insurance_Code\":\"\",\"Policy_No\":\"\",\"Ins_Copay\":null,\"act_as_nok\":0,\"meditech_relationship\":null,\"drug_allergies\":null,\"duplicate_account\":false,\"mfa_code\":null,\"mfa_code_expires_at\":null},\"forms\":[],\"next_of_kin\":{\"title\":\"Mr\",\"firstname\":\"Shaneooxxxzzz\",\"surname\":\"Radfordooxxzzz\",\"Date_of_Birth\":\"01\\/01\\/2000\",\"Gender\":\"F\",\"Address_1\":\"10007553 Sandpit St\",\"Address_2\":\"\",\"Address_3\":null,\"Address_4\":\"TAS\",\"Address_5\":\"\",\"Home_Address\":\"7316\",\"mobile\":\"0000000000\",\"home_phone\":\"0000000000\",\"mrn\":null,\"email\":null},\"appointment\":null,\"referral\":{\"provider_id\":\"0\",\"admission_source\":null,\"registration_type\":\"0\"},\"order\":[],\"patient_flow\":{\"check_in_time\":\"false\",\"complete_time\":\"false\"}},{\"patient\":{\"title\":\"\",\"firstname\":\"Sandra\",\"surname\":\"Radford\",\"Date_of_Birth\":\"18\\/10\\/1950\",\"Gender\":\"F\",\"Address_1\":\"ad11x\",\"Address_2\":\"ad22x\",\"Address_3\":\"ad33x\",\"Address_4\":\"TAS\",\"Address_5\":\"\",\"Home_Address\":\"7316\",\"mobile\":\"61483023227\",\"home_phone\":\"61483023227\",\"mrn\":\"SQ104122821\",\"email\":\"patrick.mcgrane@dedalus.com\",\"gp_firstname\":\"Practice\",\"gp_mcn\":\"5413\",\"id\":11813034,\"aka_firstname\":null,\"aka_surname\":null,\"middlename\":null,\"opt_out_result\":\"SMS\",\"own_number\":null,\"screening_cohort\":null,\"speciality_id\":null,\"nationality\":null,\"designated_contact_firstname\":null,\"designated_contact_surname\":null,\"designated_contact_mobile\":null,\"translator_language\":null,\"read_sign_language\":null,\"alternative_number\":null,\"screening_id\":null,\"covid_19_id\":null,\"deceased_date\":null,\"archived_box_number\":null,\"pps_number\":null,\"accessibility\":null,\"covid19status\":null,\"covid19vax\":null,\"infection\":null,\"allergies\":null,\"Marital_Status\":null,\"Religion\":null,\"Insurance_Code\":\"\",\"Policy_No\":\"\",\"Ins_Copay\":null,\"act_as_nok\":0,\"meditech_relationship\":null,\"drug_allergies\":null,\"duplicate_account\":false,\"mfa_code\":null,\"mfa_code_expires_at\":null},\"forms\":[],\"next_of_kin\":{\"title\":\"Mr\",\"firstname\":\"Shaneooxxxzzz\",\"surname\":\"Radfordooxxzzz\",\"Date_of_Birth\":\"01\\/01\\/2000\",\"Gender\":\"F\",\"Address_1\":\"10007553 Sandpit St\",\"Address_2\":\"\",\"Address_3\":null,\"Address_4\":\"TAS\",\"Address_5\":\"\",\"Home_Address\":\"7316\",\"mobile\":\"0000000000\",\"home_phone\":\"0000000000\",\"mrn\":null,\"email\":null},\"appointment\":null,\"referral\":{\"provider_id\":\"0\",\"admission_source\":null,\"registration_type\":\"0\"},\"order\":[],\"patient_flow\":{\"check_in_time\":\"false\",\"complete_time\":\"false\"}},{\"patient\":{\"title\":\"\",\"firstname\":\"Sandra\",\"surname\":\"Radford\",\"Date_of_Birth\":\"18\\/10\\/1950\",\"Gender\":\"F\",\"Address_1\":\"ad11x\",\"Address_2\":\"ad22x\",\"Address_3\":\"ad33x\",\"Address_4\":\"TAS\",\"Address_5\":\"\",\"Home_Address\":\"7316\",\"mobile\":\"61483023227\",\"home_phone\":\"61483023227\",\"mrn\":\"SQ104122821\",\"email\":\"patrick.mcgrane@dedalus.com\",\"gp_firstname\":\"Practice\",\"gp_mcn\":\"5413\",\"id\":11813034,\"aka_firstname\":null,\"aka_surname\":null,\"middlename\":null,\"opt_out_result\":\"SMS\",\"own_number\":null,\"screening_cohort\":null,\"speciality_id\":null,\"nationality\":null,\"designated_contact_firstname\":null,\"designated_contact_surname\":null,\"designated_contact_mobile\":null,\"translator_language\":null,\"read_sign_language\":null,\"alternative_number\":null,\"screening_id\":null,\"covid_19_id\":null,\"deceased_date\":null,\"archived_box_number\":null,\"pps_number\":null,\"accessibility\":null,\"covid19status\":null,\"covid19vax\":null,\"infection\":null,\"allergies\":null,\"Marital_Status\":null,\"Religion\":null,\"Insurance_Code\":\"\",\"Policy_No\":\"\",\"Ins_Copay\":null,\"act_as_nok\":0,\"meditech_relationship\":null,\"drug_allergies\":null,\"duplicate_account\":false,\"mfa_code\":null,\"mfa_code_expires_at\":null},\"forms\":[],\"next_of_kin\":{\"title\":\"Mr\",\"firstname\":\"Shaneooxxxzzz\",\"surname\":\"Radfordooxxzzz\",\"Date_of_Birth\":\"01\\/01\\/2000\",\"Gender\":\"F\",\"Address_1\":\"10007553 Sandpit St\",\"Address_2\":\"\",\"Address_3\":null,\"Address_4\":\"TAS\",\"Address_5\":\"\",\"Home_Address\":\"7316\",\"mobile\":\"0000000000\",\"home_phone\":\"0000000000\",\"mrn\":null,\"email\":null},\"appointment\":null,\"referral\":{\"provider_id\":\"0\",\"admission_source\":null,\"registration_type\":\"0\"},\"order\":[],\"patient_flow\":{\"check_in_time\":\"false\",\"complete_time\":\"false\"}}]",
            "Name": ""
        },
        {
            "Message": "POST /sandpit-ths-outbound HTTP/1.1\r\nHost: 10.0.1.200:6544\r\nUser-Agent: GuzzleHttp/6.5.5 curl/8.3.0 PHP/7.4.33\r\nContent-Type: application/json\r\nContent-Length: 6780\r\n\r\n[{\"patient\":{\"title\":\"MRS\",\"firstname\":\"Deborah\",\"surname\":\"Pickering\",\"Date_of_Birth\":\"09\\/12\\/1958\",\"Gender\":\"F\",\"Address_1\":\"Red Street\",\"Address_2\":\"\",\"Address_3\":\"Waratah\",\"Address_4\":\"TAS\",\"Address_5\":\"\",\"Home_Address\":\"7321\",\"mobile\":\"61661234567\",\"home_phone\":\"661234567\",\"mrn\":\"SQ203473983\",\"email\":\"\",\"gp_firstname\":\"Practice\",\"gp_mcn\":\"5347\",\"id\":11813520,\"aka_firstname\":null,\"aka_surname\":null,\"middlename\":null,\"opt_out_result\":\"SMS\",\"own_number\":null,\"screening_cohort\":null,\"speciality_id\":null,\"nationality\":null,\"designated_contact_firstname\":null,\"designated_contact_surname\":null,\"designated_contact_mobile\":null,\"translator_language\":null,\"read_sign_language\":null,\"alternative_number\":null,\"screening_id\":null,\"covid_19_id\":null,\"deceased_date\":null,\"archived_box_number\":null,\"pps_number\":null,\"accessibility\":null,\"covid19status\":null,\"covid19vax\":null,\"infection\":null,\"allergies\":null,\"Marital_Status\":null,\"Religion\":null,\"Insurance_Code\":\"\",\"Policy_No\":\"\",\"Ins_Copay\":null,\"act_as_nok\":0,\"meditech_relationship\":null,\"drug_allergies\":null,\"duplicate_account\":false,\"mfa_code\":null,\"mfa_code_expires_at\":null},\"forms\":[],\"next_of_kin\":{\"title\":\"Mr\",\"firstname\":\"peter\",\"surname\":\"branagan\",\"Date_of_Birth\":\"01\\/02\\/2003\",\"Gender\":\"M\",\"Address_1\":null,\"Address_2\":null,\"Address_3\":null,\"Address_4\":null,\"Address_5\":null,\"Home_Address\":null,\"mobile\":\"661234567\",\"home_phone\":null,\"mrn\":null,\"email\":null,\"relationship\":\"SIS\"},\"appointment\":{\"id\":22761870,\"parent_id\":null,\"facility_id\":114,\"user_id\":11813520,\"facility_type\":\"f\",\"consultant_id\":0,\"reservation_date\":\"2024-01-17 00:00:00\",\"reservation_time\":\"12:30\",\"reservation_end_time\":\"13:10\",\"reason_id\":5831,\"comments\":null,\"recurrence\":\"N\",\"recurrence_end_date\":\"0000-00-00\",\"date\":\"2024-01-12 09:11:14\",\"status\":\"cancelled\",\"attended_by\":0,\"is_attended\":\"yes\",\"google_cal_id\":\"NEURO_NWRH\",\"booking_user_id\":0,\"location_pref\":\"44756874\",\"refer_id\":0,\"source\":\"h\",\"print\":\"N\",\"stats\":\"y\",\"modified\":\"2024-01-12 14:11:42\",\"modified_source\":\"b\",\"episode_no\":null,\"notified\":\"N\",\"refer_type\":null,\"cream\":\"N\",\"gp_name\":null,\"secretary\":99,\"quality\":\"Y\",\"hl7_id\":\"7323901\",\"clinic_referred_from\":null,\"bay\":1,\"capacity_sync\":\"N\",\"is_urgent\":0,\"confirm_date\":null,\"confirmed_by\":null,\"service_provider_id\":null,\"appointment_group\":null,\"auto_marked_dna_at\":null,\"dna_response_token\":null,\"patient_group_id\":null,\"referral_document\":null,\"source_kiosk_facility_id\":null,\"is_additional_consultant_of\":null,\"checkin_code\":262408,\"appointment_start\":\"2024-01-17T01:30:00.000000Z\",\"referral_orders\":[],\"referrals\":[{\"id\":12654070,\"facility_id\":12,\"user_id\":11813520,\"date_referred\":\"2024-01-12 00:00:00\",\"date_limit\":null,\"category_id\":440,\"speciality_id\":654,\"referral_source_id\":410,\"referral_source_name\":\"NSP Practice Blackmans Bay Health\",\"status\":\"discharged\",\"condition\":\"\",\"comments\":\"HL7 Referral\",\"is_staff\":\"N\",\"is_priority\":\"N\",\"modified\":\"2024-01-12 16:53:33\",\"modified_by\":22,\"created\":\"2024-01-12 09:10:03\",\"created_by\":22,\"letter_sent_date\":null,\"assigned_date\":null,\"speciality_group_id\":null,\"document\":null,\"funding\":null,\"authorisation\":0,\"previous_admissions\":null,\"suicide_attempts\":null,\"others_care\":null,\"hear_about_us\":null,\"patient_type\":null,\"created_sms_sent\":1,\"book_appt_sms_num_sent\":0,\"pas_verified\":0,\"seeing_other_mental_health_professional\":null,\"current_medication\":null,\"call_type\":null,\"gp_details_id\":null,\"hopstial\":null,\"last_viewed\":null,\"control_id\":\"7323901\",\"covid_19_id\":\"1897472\",\"print_label\":null,\"residential_id\":null,\"facility_type\":null,\"referral_type\":null,\"parent_id\":0,\"date_accepted\":null,\"pivot\":{\"res_id\":22761870,\"ewaiting_referral_id\":12654070},\"additional_info\":{\"covid_19_symptomatic\":null,\"date_of_last_test\":null,\"transport\":null,\"preferred_date\":null,\"hlink_source\":null,\"flight_number\":null,\"local_address_1\":null,\"local_address_2\":null,\"local_address_3\":null,\"local_address_4\":null,\"local_address_5\":null,\"local_eircode\":null,\"setting_name\":null,\"setting_gln\":null,\"setting_facility_id\":null,\"other_setting_type\":null,\"setting_association\":null,\"setting_address_1\":null,\"setting_address_2\":null,\"setting_address_3\":null,\"setting_address_4\":null,\"setting_address_5\":null,\"setting_county\":null,\"setting_eircode\":null,\"setting_cho\":null,\"sentinel_gp_id\":null,\"meets_ili_definition\":null,\"influenza_swab_required\":null,\"additional_notes_to_testers\":null,\"country_code\":null,\"covid_vaccinated\":null,\"stay_longer_than_14_days\":null,\"auto_triage_message_sent\":0,\"contrast_type\":null,\"contrast_amount\":null,\"contrast_protocol\":null,\"facility_room_id\":null,\"justification\":0,\"covid_vaccination_status\":null,\"antigen_positive_test\":null,\"antigen_test_reason\":null,\"antigen_positive_test_date\":null,\"refer_id\":null,\"consultant_id\":12,\"excess_payment\":null,\"insurance_plan\":null,\"provider_id\":\"0\",\"admission_code_id\":null,\"insurance_package_code\":null,\"insurance_plan_id\":null,\"approved_terms_and_conditions\":0,\"registration_type\":null,\"meets_ARI_case_definition\":null}}]},\"referral\":{\"provider_id\":\"0\",\"admission_source\":null,\"registration_type\":\"0\"},\"order\":[],\"patient_flow\":{\"check_in_time\":\"false\",\"complete_time\":\"false\"}},{\"patient\":{\"title\":\"MRS\",\"firstname\":\"Deborah\",\"surname\":\"Pickering\",\"Date_of_Birth\":\"09\\/12\\/1958\",\"Gender\":\"F\",\"Address_1\":\"Red Street\",\"Address_2\":\"\",\"Address_3\":\"Waratah\",\"Address_4\":\"TAS\",\"Address_5\":\"\",\"Home_Address\":\"7321\",\"mobile\":\"61661234567\",\"home_phone\":\"661234567\",\"mrn\":\"SQ203473983\",\"email\":\"\",\"gp_firstname\":\"Practice\",\"gp_mcn\":\"5347\",\"id\":11813520,\"aka_firstname\":null,\"aka_surname\":null,\"middlename\":null,\"opt_out_result\":\"SMS\",\"own_number\":null,\"screening_cohort\":null,\"speciality_id\":null,\"nationality\":null,\"designated_contact_firstname\":null,\"designated_contact_surname\":null,\"designated_contact_mobile\":null,\"translator_language\":null,\"read_sign_language\":null,\"alternative_number\":null,\"screening_id\":null,\"covid_19_id\":null,\"deceased_date\":null,\"archived_box_number\":null,\"pps_number\":null,\"accessibility\":null,\"covid19status\":null,\"covid19vax\":null,\"infection\":null,\"allergies\":null,\"Marital_Status\":null,\"Religion\":null,\"Insurance_Code\":\"\",\"Policy_No\":\"\",\"Ins_Copay\":null,\"act_as_nok\":0,\"meditech_relationship\":null,\"drug_allergies\":null,\"duplicate_account\":false,\"mfa_code\":null,\"mfa_code_expires_at\":null},\"forms\":[],\"next_of_kin\":{\"title\":\"Mr\",\"firstname\":\"peter\",\"surname\":\"branagan\",\"Date_of_Birth\":\"01\\/02\\/2003\",\"Gender\":\"M\",\"Address_1\":null,\"Address_2\":null,\"Address_3\":null,\"Address_4\":null,\"Address_5\":null,\"Home_Address\":null,\"mobile\":\"661234567\",\"home_phone\":null,\"mrn\":null,\"email\":null,\"relationship\":\"SIS\"},\"appointment\":null,\"referral\":{\"provider_id\":\"0\",\"admission_source\":null,\"registration_type\":\"0\"},\"order\":[],\"patient_flow\":{\"check_in_time\":\"false\",\"complete_time\":\"false\"}}]",
            "Name": ""
        },
        {
            "Message": "POST /sandpit-ths-outbound HTTP/1.1\r\nHost: 10.0.1.200:6544\r\nUser-Agent: GuzzleHttp/6.5.5 curl/8.3.0 PHP/7.4.33\r\nContent-Type: application/json\r\nContent-Length: 5102\r\n\r\n[{\"type\":\"appointment\",\"appointment\":{\"id\":22764217,\"parent_id\":null,\"facility_id\":125,\"user_id\":11814431,\"facility_type\":\"f\",\"consultant_id\":0,\"reservation_date\":\"2024-05-06\",\"reservation_time\":\"08:00\",\"reservation_end_time\":\"08:15\",\"reason_id\":5891,\"comments\":null,\"recurrence\":\"N\",\"recurrence_end_date\":\"0000-00-00\",\"date\":\"2024-05-01 13:17:25\",\"status\":\"active\",\"attended_by\":0,\"is_attended\":\"yes\",\"google_cal_id\":null,\"booking_user_id\":0,\"location_pref\":null,\"refer_id\":0,\"source\":\"wl\",\"print\":\"N\",\"stats\":\"y\",\"modified\":null,\"modified_source\":null,\"episode_no\":null,\"notified\":\"N\",\"refer_type\":null,\"cream\":\"N\",\"gp_name\":null,\"secretary\":99,\"quality\":\"Y\",\"hl7_id\":null,\"clinic_referred_from\":null,\"bay\":1,\"capacity_sync\":\"N\",\"is_urgent\":0,\"confirm_date\":null,\"confirmed_by\":null,\"service_provider_id\":null,\"appointment_group\":null,\"auto_marked_dna_at\":null,\"dna_response_token\":null,\"patient_group_id\":null,\"referral_document\":null,\"source_kiosk_facility_id\":null,\"is_additional_consultant_of\":null,\"checkin_code\":906433,\"start\":\"20240506080000\",\"end\":\"20240506081500\",\"duration\":15,\"action_reasons\":[],\"custom_fields\":{\"account_class\":\"Public\"}},\"patient_flow\":{\"check_in_time\":\"false\",\"complete_time\":\"false\",\"current_stage\":null},\"order\":[],\"patient\":{\"id\":11814431,\"mobile\":\"\",\"home_phone\":\"04878787878\",\"firstname\":\"Testpat4\",\"surname\":\"Dedalus\",\"email\":\"saasdfdja@sandpit.com\",\"bcrypt_check\":\"n\",\"reactivate_code_sent\":0,\"user_type\":\"N\",\"notify\":0,\"created\":\"2024-02-14 03:44:56\",\"modified\":\"2024-05-01 04:16:15\",\"modified_by\":0,\"status\":\"active\",\"old_password\":null,\"regcode\":null,\"pwd_reset_time\":0,\"is_pwd_expired\":0,\"parent\":0,\"relationship\":null,\"Date_of_Birth\":\"08\\/12\\/1990\",\"Home_Address\":\"7310\",\"Employee_Number\":null,\"paygroup\":null,\"verified\":\"n\",\"online_regcode\":null,\"Gender\":\"F\",\"Address_1\":\"16 Sandpit St\",\"Address_2\":\"\",\"Address_3\":\"\",\"Address_4\":\"Don\",\"Address_5\":\"TAS\",\"country\":null,\"address_coordinates\":null,\"facility_link_id\":0,\"sms_verification\":\"N\",\"Chart_Number\":null,\"mrn\":\"SQ7000015\",\"history_no\":null,\"company\":null,\"sight\":\"N\",\"hearing\":\"N\",\"wheelchair\":\"N\",\"immobility\":\"N\",\"groupsave\":\"N\",\"learning_disabilities\":\"N\",\"requires_translator\":\"\",\"fainting\":\"N\",\"needle_phobia\":\"N\",\"nhs_number\":null,\"gp_name\":\"\",\"gp_details\":null,\"cost_centre\":null,\"display\":\"Y\",\"callback\":\"N\",\"key_code\":null,\"menopause_stage\":null,\"car_registration\":null,\"national_governing_body\":null,\"event\":null,\"title\":\"Ms\",\"salutation_preference\":\"personal\",\"registration_source\":null,\"ukey\":\"sq-f8e25781-7b62-4081-9245-0d64ec7671be\",\"ihi_number\":null,\"speech_impairment\":null,\"hoist\":null,\"birth_date_field\":\"08\",\"birth_month_field\":\"12\",\"birth_year_field\":\"1990\",\"age\":33,\"medical_reference_numbers\":[{\"type\":\"MR\",\"key\":\"MC\",\"value\":\"99999999999\"},{\"type\":\"MR\",\"key\":null,\"value\":\"SQ7000015\"}],\"medical_reference_numbers_all\":[{\"user_id\":11814431,\"reference_type\":\"MC\",\"medical_number\":\"99999999999\",\"from_date\":\"2023-12-12\",\"to_date\":null,\"created_at\":\"2024-05-01 13:16:15\"}],\"name\":\"Testpat4 Dedalus\",\"address\":\"16 Sandpit St, Don, TAS\",\"patient\":\"Testpat4 Dedalus\",\"additional_info\":{\"aka_firstname\":null,\"aka_surname\":null,\"middlename\":\"\",\"opt_out_result\":\"SMS\",\"own_number\":null,\"screening_cohort\":null,\"speciality_id\":null,\"nationality\":null,\"designated_contact_firstname\":null,\"designated_contact_surname\":null,\"designated_contact_mobile\":null,\"translator_language\":null,\"read_sign_language\":null,\"alternative_number\":null,\"screening_id\":null,\"covid_19_id\":null,\"deceased_date\":null,\"archived_box_number\":null,\"pps_number\":null,\"accessibility\":null,\"covid19status\":null,\"covid19vax\":null,\"infection\":null,\"allergies\":null,\"Marital_Status\":null,\"Religion\":null,\"Insurance_Code\":\"\",\"Policy_No\":\"\",\"Ins_Copay\":null,\"act_as_nok\":0,\"meditech_relationship\":null,\"drug_allergies\":null,\"duplicate_account\":false,\"mfa_code\":null,\"mfa_code_expires_at\":null},\"formatted_dob\":\"19901208\",\"gp_firstname\":\"\",\"gp_mcn\":\"\",\"custom_fields\":[]},\"referral\":{\"id\":12654674,\"facility_id\":119,\"user_id\":11814431,\"date_referred\":\"2024-05-01 00:00:00\",\"date_limit\":null,\"category_id\":0,\"speciality_id\":649,\"referral_source_id\":410,\"referral_source_name\":\"DR William Smith\",\"status\":\"assigned\",\"condition\":\"\",\"comments\":\"HL7 Referral\",\"is_staff\":\"N\",\"is_priority\":\"N\",\"modified\":\"2024-05-01 13:17:26\",\"modified_by\":24,\"created\":\"2024-05-01 13:15:37\",\"created_by\":22,\"letter_sent_date\":null,\"assigned_date\":null,\"speciality_group_id\":null,\"document\":null,\"funding\":null,\"authorisation\":0,\"previous_admissions\":null,\"suicide_attempts\":null,\"others_care\":null,\"hear_about_us\":null,\"patient_type\":null,\"created_sms_sent\":1,\"book_appt_sms_num_sent\":0,\"pas_verified\":0,\"seeing_other_mental_health_professional\":null,\"current_medication\":null,\"call_type\":null,\"gp_details_id\":null,\"hopstial\":null,\"last_viewed\":null,\"control_id\":\"7324338\",\"covid_19_id\":\"1897838\",\"print_label\":null,\"residential_id\":null,\"facility_type\":null,\"referral_type\":null,\"parent_id\":0,\"date_accepted\":null,\"condition_notes_string\":\"\",\"provider_id\":\"0\",\"admission_source\":null,\"pivot\":{\"res_id\":22764217,\"ewaiting_referral_id\":12654674}}}]",
            "Name": ""
        },
        {
            "Message": "POST /sandpit-ths-outbound HTTP/1.1\r\nHost: 10.0.1.200:6544\r\nUser-Agent: GuzzleHttp/6.5.5 curl/8.3.0 PHP/7.4.33\r\nContent-Type: application/json\r\nContent-Length: 5994\r\n\r\n[{\"type\":\"appointment\",\"appointment\":{\"id\":22764340,\"parent_id\":null,\"facility_id\":129,\"user_id\":11813900,\"facility_type\":\"f\",\"consultant_id\":0,\"reservation_date\":\"2024-05-14\",\"reservation_time\":\"10:00\",\"reservation_end_time\":\"10:30\",\"reason_id\":5887,\"comments\":null,\"recurrence\":\"N\",\"recurrence_end_date\":\"0000-00-00\",\"date\":\"2024-05-08 20:26:30\",\"status\":\"cancelled\",\"attended_by\":0,\"is_attended\":\"yes\",\"google_cal_id\":\"CARD_NWRH\",\"booking_user_id\":0,\"location_pref\":\"44757478\",\"refer_id\":0,\"source\":\"h\",\"print\":\"N\",\"stats\":\"y\",\"modified\":\"2024-05-08 20:28:42\",\"modified_source\":\"r\",\"episode_no\":null,\"notified\":\"N\",\"refer_type\":null,\"cream\":\"N\",\"gp_name\":null,\"secretary\":99,\"quality\":\"Y\",\"hl7_id\":\"7324414\",\"clinic_referred_from\":null,\"bay\":1,\"capacity_sync\":\"N\",\"is_urgent\":0,\"confirm_date\":null,\"confirmed_by\":null,\"service_provider_id\":null,\"appointment_group\":null,\"auto_marked_dna_at\":null,\"dna_response_token\":null,\"patient_group_id\":null,\"referral_document\":null,\"source_kiosk_facility_id\":null,\"is_additional_consultant_of\":null,\"checkin_code\":875754,\"start\":\"20240514100000\",\"end\":\"20240514103000\",\"duration\":30,\"action_reasons\":[{\"created_at\":\"2024-05-08T10:28:45.000000Z\",\"type\":\"cancel\",\"reason\":\"Date\\/Time Unsuitable\",\"code\":\"DTU\"}],\"custom_fields\":{\"account_class\":\"Common Law\"}},\"patient_flow\":{\"check_in_time\":\"false\",\"complete_time\":\"false\",\"current_stage\":null},\"order\":[{\"id\":52278,\"ewaiting_referral_id\":12654758,\"order_id\":0,\"episode_number\":0,\"exam_code\":\"BP1TH NEW\",\"exam_name\":\"New\",\"res_id\":22764340,\"accession_number\":null,\"created_at\":\"2024-05-08 20:25:57\",\"updated_at\":\"2024-05-08 20:26:31\",\"cancellation_code\":\"\",\"cancellation_date\":null,\"cancellation_processed\":0,\"cancellation_processed_success\":null,\"reschedule_date\":null,\"file_path\":null,\"requires_blood_test\":0,\"normal_business_hours\":0,\"no_cancellation_comms\":0,\"has_previous_appt\":0,\"reschedule_end_time\":null,\"pregnancy\":null,\"deleted_at\":null,\"category_id\":\"\",\"exam_description\":\"\",\"room_id\":\"\"}],\"patient\":{\"id\":11813900,\"mobile\":\"447747455864\",\"home_phone\":\"0000000000\",\"firstname\":\"Rrtesttwofn\",\"surname\":\"Rrtestsntwosn\",\"email\":\"rrehan+31@dedalus.com\",\"bcrypt_check\":\"y\",\"reactivate_code_sent\":1,\"user_type\":\"N\",\"notify\":0,\"created\":\"2024-01-02 10:10:56\",\"modified\":\"2024-05-08 11:27:16\",\"modified_by\":0,\"status\":\"active\",\"old_password\":null,\"regcode\":null,\"pwd_reset_time\":0,\"is_pwd_expired\":0,\"parent\":0,\"relationship\":null,\"Date_of_Birth\":\"02\\/01\\/1930\",\"Home_Address\":\"7320\",\"Employee_Number\":null,\"paygroup\":null,\"verified\":\"y\",\"online_regcode\":\"953013\",\"Gender\":\"M\",\"Address_1\":\"6530488 Sandpit St\",\"Address_2\":\"\",\"Address_3\":\"\",\"Address_4\":\"BURNIE\",\"Address_5\":\"TAS\",\"country\":null,\"address_coordinates\":null,\"facility_link_id\":0,\"sms_verification\":\"N\",\"Chart_Number\":null,\"mrn\":\"SQ103577429\",\"history_no\":null,\"company\":null,\"sight\":\"N\",\"hearing\":\"N\",\"wheelchair\":\"N\",\"immobility\":\"N\",\"groupsave\":\"N\",\"learning_disabilities\":\"N\",\"requires_translator\":\"\",\"fainting\":\"N\",\"needle_phobia\":\"N\",\"nhs_number\":null,\"gp_name\":\"\",\"gp_details\":null,\"cost_centre\":null,\"display\":\"Y\",\"callback\":\"N\",\"key_code\":null,\"menopause_stage\":null,\"car_registration\":null,\"national_governing_body\":null,\"event\":null,\"title\":\"Mr\",\"salutation_preference\":\"personal\",\"registration_source\":null,\"ukey\":\"sq-b5b1d6da-cd91-4d32-a562-b100b9932f8b\",\"ihi_number\":null,\"speech_impairment\":null,\"hoist\":null,\"birth_date_field\":\"02\",\"birth_month_field\":\"01\",\"birth_year_field\":\"1930\",\"age\":94,\"medical_reference_numbers\":[{\"type\":\"MR\",\"key\":\"MC\",\"value\":\"61433051165\"},{\"type\":\"MR\",\"key\":null,\"value\":\"SQ103577429\"}],\"medical_reference_numbers_all\":[{\"user_id\":11813900,\"reference_type\":\"MC\",\"medical_number\":\"61433051165\",\"from_date\":\"2015-08-26\",\"to_date\":null,\"created_at\":\"2024-05-08 20:27:16\"}],\"name\":\"Rrtesttwofn Rrtestsntwosn\",\"address\":\"6530488 Sandpit St, BURNIE, TAS\",\"patient\":\"Rrtesttwofn Rrtestsntwosn\",\"additional_info\":{\"aka_firstname\":\"Frances\",\"aka_surname\":\"Horn\",\"middlename\":\"Lance\",\"opt_out_result\":\"SMS\",\"own_number\":null,\"screening_cohort\":null,\"speciality_id\":null,\"nationality\":null,\"designated_contact_firstname\":null,\"designated_contact_surname\":null,\"designated_contact_mobile\":null,\"translator_language\":\"English\",\"read_sign_language\":null,\"alternative_number\":null,\"screening_id\":null,\"covid_19_id\":null,\"deceased_date\":null,\"archived_box_number\":null,\"pps_number\":null,\"accessibility\":null,\"covid19status\":null,\"covid19vax\":null,\"infection\":null,\"allergies\":null,\"Marital_Status\":null,\"Religion\":null,\"Insurance_Code\":\"\",\"Policy_No\":\"\",\"Ins_Copay\":null,\"act_as_nok\":0,\"meditech_relationship\":null,\"drug_allergies\":null,\"duplicate_account\":false,\"mfa_code\":null,\"mfa_code_expires_at\":null,\"insurance_company\":\"\",\"aka_middle_name\":\"Lance\",\"indigenous_status_id\":4},\"formatted_dob\":\"19300102\",\"gp_firstname\":\"\",\"gp_mcn\":\"\",\"custom_fields\":[]},\"referral\":{\"id\":12654758,\"facility_id\":121,\"user_id\":11813900,\"date_referred\":\"2024-05-08 00:00:00\",\"date_limit\":null,\"category_id\":455,\"speciality_id\":649,\"referral_source_id\":410,\"referral_source_name\":\"DR Rachel Gaggin\",\"status\":\"active\",\"condition\":\"\",\"comments\":\"HL7 Referral\",\"is_staff\":null,\"is_priority\":null,\"modified\":\"2024-05-08 20:26:31\",\"modified_by\":1,\"created\":\"2024-05-08 20:24:39\",\"created_by\":22,\"letter_sent_date\":null,\"assigned_date\":null,\"speciality_group_id\":null,\"document\":null,\"funding\":null,\"authorisation\":0,\"previous_admissions\":null,\"suicide_attempts\":null,\"others_care\":null,\"hear_about_us\":null,\"patient_type\":null,\"created_sms_sent\":1,\"book_appt_sms_num_sent\":0,\"pas_verified\":0,\"seeing_other_mental_health_professional\":0,\"current_medication\":null,\"call_type\":null,\"gp_details_id\":null,\"hopstial\":null,\"last_viewed\":null,\"control_id\":\"7324414\",\"covid_19_id\":\"1897904\",\"print_label\":null,\"residential_id\":null,\"facility_type\":null,\"referral_type\":null,\"parent_id\":0,\"date_accepted\":null,\"condition_notes_string\":\"\",\"provider_id\":\"0\",\"admission_source\":null,\"pivot\":{\"res_id\":22764340,\"ewaiting_referral_id\":12654758}}}]",
            "Name": "A03"
        },
        {
            "Message": "POST /sandpit-ths-outbound HTTP/1.1\r\nHost: 10.0.1.200:6544\r\nUser-Agent: GuzzleHttp/6.5.5 curl/8.3.0 PHP/7.4.33\r\nContent-Type: application/json\r\nContent-Length: 5896\r\n\r\n[{\"type\":\"appointment\",\"appointment\":{\"id\":22764456,\"parent_id\":null,\"facility_id\":129,\"user_id\":11813900,\"facility_type\":\"f\",\"consultant_id\":0,\"reservation_date\":\"2024-05-13\",\"reservation_time\":\"12:30\",\"reservation_end_time\":\"13:00\",\"reason_id\":5887,\"comments\":\"\",\"recurrence\":\"N\",\"recurrence_end_date\":\"0000-00-00\",\"date\":\"2024-05-09 19:19:17\",\"status\":\"cancelled\",\"attended_by\":0,\"is_attended\":\"yes\",\"google_cal_id\":\"CARD_NWRH\",\"booking_user_id\":0,\"location_pref\":\"44757490\",\"refer_id\":0,\"source\":\"h\",\"print\":\"N\",\"stats\":\"y\",\"modified\":\"2024-05-09 19:29:03\",\"modified_source\":\"b\",\"episode_no\":null,\"notified\":\"N\",\"refer_type\":null,\"cream\":\"N\",\"gp_name\":null,\"secretary\":99,\"quality\":\"Y\",\"hl7_id\":\"7324347\",\"clinic_referred_from\":null,\"bay\":1,\"capacity_sync\":\"N\",\"is_urgent\":0,\"confirm_date\":null,\"confirmed_by\":null,\"service_provider_id\":null,\"appointment_group\":null,\"auto_marked_dna_at\":null,\"dna_response_token\":null,\"patient_group_id\":null,\"referral_document\":null,\"source_kiosk_facility_id\":null,\"is_additional_consultant_of\":null,\"checkin_code\":273857,\"start\":\"20240513123000\",\"end\":\"20240513130000\",\"duration\":30,\"action_reasons\":[],\"custom_fields\":{\"account_class\":\"Motor Vehicle Accident\"}},\"patient_flow\":{\"check_in_time\":\"false\",\"complete_time\":\"false\",\"current_stage\":null},\"order\":[{\"id\":52223,\"ewaiting_referral_id\":12654686,\"order_id\":0,\"episode_number\":0,\"exam_code\":\"BP1TH NEW\",\"exam_name\":\"New\",\"res_id\":22764456,\"accession_number\":null,\"created_at\":\"2024-05-02 00:34:04\",\"updated_at\":\"2024-05-09 19:19:18\",\"cancellation_code\":\"\",\"cancellation_date\":null,\"cancellation_processed\":0,\"cancellation_processed_success\":null,\"reschedule_date\":null,\"file_path\":null,\"requires_blood_test\":0,\"normal_business_hours\":0,\"no_cancellation_comms\":0,\"has_previous_appt\":1,\"reschedule_end_time\":null,\"pregnancy\":null,\"deleted_at\":null,\"category_id\":\"\",\"exam_description\":\"\",\"room_id\":\"\"}],\"patient\":{\"id\":11813900,\"mobile\":\"447747455864\",\"home_phone\":\"0000000000\",\"firstname\":\"Rrtesttwofn\",\"surname\":\"Rrtestsntwosn\",\"email\":\"rrehan+31@dedalus.com\",\"bcrypt_check\":\"y\",\"reactivate_code_sent\":1,\"user_type\":\"N\",\"notify\":0,\"created\":\"2024-01-02 10:10:56\",\"modified\":\"2024-05-09 10:25:10\",\"modified_by\":0,\"status\":\"active\",\"old_password\":null,\"regcode\":null,\"pwd_reset_time\":0,\"is_pwd_expired\":0,\"parent\":0,\"relationship\":null,\"Date_of_Birth\":\"02\\/01\\/1930\",\"Home_Address\":\"7320\",\"Employee_Number\":null,\"paygroup\":null,\"verified\":\"y\",\"online_regcode\":\"953013\",\"Gender\":\"M\",\"Address_1\":\"6530488 Sandpit St\",\"Address_2\":\"\",\"Address_3\":\"\",\"Address_4\":\"BURNIE\",\"Address_5\":\"TAS\",\"country\":null,\"address_coordinates\":null,\"facility_link_id\":0,\"sms_verification\":\"N\",\"Chart_Number\":null,\"mrn\":\"SQ103577429\",\"history_no\":null,\"company\":null,\"sight\":\"N\",\"hearing\":\"N\",\"wheelchair\":\"N\",\"immobility\":\"N\",\"groupsave\":\"N\",\"learning_disabilities\":\"N\",\"requires_translator\":\"\",\"fainting\":\"N\",\"needle_phobia\":\"N\",\"nhs_number\":null,\"gp_name\":\"\",\"gp_details\":null,\"cost_centre\":null,\"display\":\"Y\",\"callback\":\"N\",\"key_code\":null,\"menopause_stage\":null,\"car_registration\":null,\"national_governing_body\":null,\"event\":null,\"title\":\"Mr\",\"salutation_preference\":\"personal\",\"registration_source\":null,\"ukey\":\"sq-b5b1d6da-cd91-4d32-a562-b100b9932f8b\",\"ihi_number\":null,\"speech_impairment\":null,\"hoist\":null,\"birth_date_field\":\"02\",\"birth_month_field\":\"01\",\"birth_year_field\":\"1930\",\"age\":94,\"medical_reference_numbers\":[{\"type\":\"MR\",\"key\":\"MC\",\"value\":\"61433051165\"},{\"type\":\"MR\",\"key\":null,\"value\":\"SQ103577429\"}],\"medical_reference_numbers_all\":[{\"user_id\":11813900,\"reference_type\":\"MC\",\"medical_number\":\"61433051165\",\"from_date\":\"2015-08-26\",\"to_date\":null,\"created_at\":\"2024-05-09 19:25:10\"}],\"name\":\"Rrtesttwofn Rrtestsntwosn\",\"address\":\"6530488 Sandpit St, BURNIE, TAS\",\"patient\":\"Rrtesttwofn Rrtestsntwosn\",\"additional_info\":{\"aka_firstname\":\"Frances\",\"aka_surname\":\"Horn\",\"middlename\":\"Lance\",\"opt_out_result\":\"SMS\",\"own_number\":null,\"screening_cohort\":null,\"speciality_id\":null,\"nationality\":null,\"designated_contact_firstname\":null,\"designated_contact_surname\":null,\"designated_contact_mobile\":null,\"translator_language\":\"English\",\"read_sign_language\":null,\"alternative_number\":null,\"screening_id\":null,\"covid_19_id\":null,\"deceased_date\":null,\"archived_box_number\":null,\"pps_number\":null,\"accessibility\":null,\"covid19status\":null,\"covid19vax\":null,\"infection\":null,\"allergies\":null,\"Marital_Status\":null,\"Religion\":null,\"Insurance_Code\":\"\",\"Policy_No\":\"\",\"Ins_Copay\":null,\"act_as_nok\":0,\"meditech_relationship\":null,\"drug_allergies\":null,\"duplicate_account\":false,\"mfa_code\":null,\"mfa_code_expires_at\":null,\"insurance_company\":\"\",\"aka_middle_name\":\"Lance\",\"indigenous_status_id\":3},\"formatted_dob\":\"19300102\",\"gp_firstname\":\"\",\"gp_mcn\":\"\",\"custom_fields\":[]},\"referral\":{\"id\":12654686,\"facility_id\":121,\"user_id\":11813900,\"date_referred\":\"2024-05-02 00:00:00\",\"date_limit\":null,\"category_id\":0,\"speciality_id\":649,\"referral_source_id\":410,\"referral_source_name\":\"DR Rachel Gaggin\",\"status\":\"active\",\"condition\":\"\",\"comments\":\"HL7 Referral\",\"is_staff\":null,\"is_priority\":null,\"modified\":\"2024-05-09 19:19:18\",\"modified_by\":1,\"created\":\"2024-05-02 00:31:18\",\"created_by\":22,\"letter_sent_date\":null,\"assigned_date\":null,\"speciality_group_id\":null,\"document\":null,\"funding\":null,\"authorisation\":0,\"previous_admissions\":null,\"suicide_attempts\":null,\"others_care\":null,\"hear_about_us\":null,\"patient_type\":null,\"created_sms_sent\":1,\"book_appt_sms_num_sent\":0,\"pas_verified\":0,\"seeing_other_mental_health_professional\":0,\"current_medication\":null,\"call_type\":null,\"gp_details_id\":null,\"hopstial\":null,\"last_viewed\":null,\"control_id\":\"7324347\",\"covid_19_id\":\"1897846\",\"print_label\":null,\"residential_id\":null,\"facility_type\":null,\"referral_type\":null,\"parent_id\":0,\"date_accepted\":null,\"condition_notes_string\":\"\",\"provider_id\":\"0\",\"admission_source\":null,\"pivot\":{\"res_id\":22764456,\"ewaiting_referral_id\":12654686}}}]",
            "Name": ""
        },
        {
            "Message": "POST /sandpit-ths-outbound HTTP/1.1\r\nHost: 10.0.1.200:6544\r\nUser-Agent: GuzzleHttp/6.5.5 curl/8.3.0 PHP/7.4.33\r\nContent-Type: application/json\r\nContent-Length: 5320\r\n\r\n[{\"type\":\"appointment\",\"appointment\":{\"id\":22763952,\"parent_id\":null,\"facility_id\":133,\"user_id\":11813612,\"facility_type\":\"f\",\"consultant_id\":0,\"reservation_date\":\"2024-05-24\",\"reservation_time\":\"11:00\",\"reservation_end_time\":\"11:15\",\"reason_id\":5892,\"comments\":\"\",\"recurrence\":\"N\",\"recurrence_end_date\":\"0000-00-00\",\"date\":\"2024-04-12 19:57:12\",\"status\":\"active\",\"attended_by\":0,\"is_attended\":\"confirm\",\"google_cal_id\":null,\"booking_user_id\":0,\"location_pref\":null,\"refer_id\":0,\"source\":\"wl\",\"print\":\"N\",\"stats\":\"y\",\"modified\":\"2024-05-23 09:22:08\",\"modified_source\":\"b\",\"episode_no\":null,\"notified\":\"N\",\"refer_type\":null,\"cream\":\"N\",\"gp_name\":null,\"secretary\":99,\"quality\":\"Y\",\"hl7_id\":null,\"clinic_referred_from\":null,\"bay\":2,\"capacity_sync\":\"N\",\"is_urgent\":0,\"confirm_date\":\"2024-05-22 01:16:59\",\"confirmed_by\":1,\"service_provider_id\":null,\"appointment_group\":null,\"auto_marked_dna_at\":null,\"dna_response_token\":null,\"patient_group_id\":null,\"referral_document\":null,\"source_kiosk_facility_id\":null,\"is_additional_consultant_of\":null,\"checkin_code\":413635,\"start\":\"20240524110000\",\"end\":\"20240524111500\",\"duration\":15,\"action_reasons\":[],\"custom_fields\":{\"account_class\":\"Public\",\"insurance\":\"HIC\"}},\"patient_flow\":{\"check_in_time\":\"20240523092208\",\"complete_time\":\"false\",\"current_stage\":\"CHECK-IN\"},\"order\":[],\"patient\":{\"id\":11813612,\"mobile\":\"61439575587\",\"home_phone\":\"0000000000\",\"firstname\":\"Cedrick\",\"surname\":\"Goodwin\",\"email\":\"ailish.geraghty@dedalus.eu\",\"bcrypt_check\":\"n\",\"reactivate_code_sent\":0,\"user_type\":\"N\",\"notify\":0,\"created\":\"2024-01-02 09:47:18\",\"modified\":\"2024-05-23 00:08:05\",\"modified_by\":0,\"status\":\"active\",\"old_password\":null,\"regcode\":null,\"pwd_reset_time\":0,\"is_pwd_expired\":0,\"parent\":0,\"relationship\":null,\"Date_of_Birth\":\"14\\/09\\/1965\",\"Home_Address\":\"7330\",\"Employee_Number\":null,\"paygroup\":null,\"verified\":\"n\",\"online_regcode\":null,\"Gender\":\"M\",\"Address_1\":\"10596232 Sandpit St\",\"Address_2\":\"\",\"Address_3\":\"\",\"Address_4\":\"Irishtown\",\"Address_5\":\"TAS\",\"country\":null,\"address_coordinates\":null,\"facility_link_id\":0,\"sms_verification\":\"N\",\"Chart_Number\":null,\"mrn\":\"SQ104318287\",\"history_no\":null,\"company\":null,\"sight\":\"N\",\"hearing\":\"N\",\"wheelchair\":\"N\",\"immobility\":\"N\",\"groupsave\":\"N\",\"learning_disabilities\":\"N\",\"requires_translator\":\"\",\"fainting\":\"N\",\"needle_phobia\":\"N\",\"nhs_number\":null,\"gp_name\":\"\",\"gp_details\":null,\"cost_centre\":null,\"display\":\"Y\",\"callback\":\"N\",\"key_code\":null,\"menopause_stage\":null,\"car_registration\":null,\"national_governing_body\":null,\"event\":null,\"title\":\"Mr\",\"salutation_preference\":\"personal\",\"registration_source\":null,\"ukey\":\"sq-238ac5f4-6758-4459-aa20-87ad7aefab56\",\"ihi_number\":null,\"speech_impairment\":\"N\",\"hoist\":\"N\",\"birth_date_field\":\"14\",\"birth_month_field\":\"09\",\"birth_year_field\":\"1965\",\"age\":58,\"medical_reference_numbers\":[{\"type\":\"MR\",\"key\":\"MC\",\"value\":\"61601813052\"},{\"type\":\"MR\",\"key\":null,\"value\":\"SQ104318287\"}],\"medical_reference_numbers_all\":[{\"user_id\":11813612,\"reference_type\":\"MC\",\"medical_number\":\"61601813052\",\"from_date\":\"2022-07-14\",\"to_date\":null,\"created_at\":\"2024-05-23 09:08:05\"}],\"name\":\"Cedrick Goodwin\",\"address\":\"10596232 Sandpit St, Irishtown, TAS\",\"patient\":\"Cedrick Goodwin\",\"additional_info\":{\"aka_firstname\":\"Geoff\",\"aka_surname\":\"Collins\",\"middlename\":\"Harold\",\"opt_out_result\":\"SMS\",\"own_number\":null,\"screening_cohort\":null,\"speciality_id\":null,\"nationality\":null,\"designated_contact_firstname\":null,\"designated_contact_surname\":null,\"designated_contact_mobile\":null,\"translator_language\":\"English\",\"read_sign_language\":null,\"alternative_number\":null,\"screening_id\":null,\"covid_19_id\":null,\"deceased_date\":null,\"archived_box_number\":null,\"pps_number\":null,\"accessibility\":null,\"covid19status\":null,\"covid19vax\":null,\"infection\":null,\"allergies\":null,\"Marital_Status\":null,\"Religion\":null,\"Insurance_Code\":\"\",\"Policy_No\":\"\",\"Ins_Copay\":null,\"act_as_nok\":0,\"emergency_contact\":0,\"meditech_relationship\":null,\"drug_allergies\":null,\"duplicate_account\":false,\"mfa_code\":null,\"mfa_code_expires_at\":null,\"insurance_company\":null,\"aka_middle_name\":\"\",\"indigenous_status_id\":3},\"formatted_dob\":\"19650914\",\"gp_firstname\":\"\",\"gp_mcn\":\"\",\"custom_fields\":[]},\"referral\":{\"id\":12654475,\"facility_id\":119,\"user_id\":11813612,\"date_referred\":\"2024-04-11 00:00:00\",\"date_limit\":null,\"category_id\":445,\"speciality_id\":649,\"referral_source_id\":410,\"referral_source_name\":\"DR Kelechukwu Onumaegbu\",\"status\":\"assigned\",\"condition\":\"\",\"comments\":\"HL7 Referral\",\"is_staff\":\"N\",\"is_priority\":\"N\",\"modified\":\"2024-04-12 19:57:12\",\"modified_by\":1,\"created\":\"2024-04-11 15:58:18\",\"created_by\":22,\"letter_sent_date\":null,\"assigned_date\":null,\"speciality_group_id\":null,\"document\":null,\"funding\":null,\"authorisation\":0,\"previous_admissions\":null,\"suicide_attempts\":null,\"others_care\":null,\"hear_about_us\":null,\"patient_type\":null,\"created_sms_sent\":1,\"book_appt_sms_num_sent\":0,\"pas_verified\":0,\"seeing_other_mental_health_professional\":null,\"current_medication\":null,\"call_type\":null,\"gp_details_id\":null,\"hopstial\":null,\"last_viewed\":null,\"control_id\":\"7324173\",\"covid_19_id\":null,\"print_label\":null,\"residential_id\":null,\"facility_type\":null,\"referral_type\":null,\"parent_id\":0,\"date_accepted\":null,\"condition_notes_string\":\"\",\"provider_id\":\"0\",\"admission_source\":null,\"pivot\":{\"res_id\":22763952,\"ewaiting_referral_id\":12654475}}}]",
            "Name": ""
        },
        {
            "Message": "POST /sandpit-ths-outbound HTTP/1.1\r\nHost: 10.0.1.200:6544\r\nUser-Agent: GuzzleHttp/6.5.5 curl/8.3.0 PHP/7.4.33\r\nContent-Type: application/json\r\nContent-Length: 5305\r\n\r\n[{\"type\":\"appointment\",\"appointment\":{\"id\":22763952,\"parent_id\":null,\"facility_id\":133,\"user_id\":11813612,\"facility_type\":\"f\",\"consultant_id\":0,\"reservation_date\":\"2024-05-24\",\"reservation_time\":\"11:00\",\"reservation_end_time\":\"11:15\",\"reason_id\":5892,\"comments\":\"\",\"recurrence\":\"N\",\"recurrence_end_date\":\"0000-00-00\",\"date\":\"2024-04-12 19:57:12\",\"status\":\"active\",\"attended_by\":0,\"is_attended\":\"confirm\",\"google_cal_id\":null,\"booking_user_id\":0,\"location_pref\":null,\"refer_id\":0,\"source\":\"wl\",\"print\":\"N\",\"stats\":\"y\",\"modified\":\"2024-05-23 09:09:50\",\"modified_source\":\"b\",\"episode_no\":null,\"notified\":\"N\",\"refer_type\":null,\"cream\":\"N\",\"gp_name\":null,\"secretary\":99,\"quality\":\"Y\",\"hl7_id\":null,\"clinic_referred_from\":null,\"bay\":2,\"capacity_sync\":\"N\",\"is_urgent\":0,\"confirm_date\":\"2024-05-22 01:16:59\",\"confirmed_by\":1,\"service_provider_id\":null,\"appointment_group\":null,\"auto_marked_dna_at\":null,\"dna_response_token\":null,\"patient_group_id\":null,\"referral_document\":null,\"source_kiosk_facility_id\":null,\"is_additional_consultant_of\":null,\"checkin_code\":413635,\"start\":\"20240524110000\",\"end\":\"20240524111500\",\"duration\":15,\"action_reasons\":[],\"custom_fields\":{\"account_class\":\"Public\",\"insurance\":\"HIC\"}},\"patient_flow\":{\"check_in_time\":\"false\",\"complete_time\":\"false\",\"current_stage\":null},\"order\":[],\"patient\":{\"id\":11813612,\"mobile\":\"61439575587\",\"home_phone\":\"0000000000\",\"firstname\":\"Cedrick\",\"surname\":\"Goodwin\",\"email\":\"ailish.geraghty@dedalus.eu\",\"bcrypt_check\":\"n\",\"reactivate_code_sent\":0,\"user_type\":\"N\",\"notify\":0,\"created\":\"2024-01-02 09:47:18\",\"modified\":\"2024-05-23 00:08:05\",\"modified_by\":0,\"status\":\"active\",\"old_password\":null,\"regcode\":null,\"pwd_reset_time\":0,\"is_pwd_expired\":0,\"parent\":0,\"relationship\":null,\"Date_of_Birth\":\"14\\/09\\/1965\",\"Home_Address\":\"7330\",\"Employee_Number\":null,\"paygroup\":null,\"verified\":\"n\",\"online_regcode\":null,\"Gender\":\"M\",\"Address_1\":\"10596232 Sandpit St\",\"Address_2\":\"\",\"Address_3\":\"\",\"Address_4\":\"Irishtown\",\"Address_5\":\"TAS\",\"country\":null,\"address_coordinates\":null,\"facility_link_id\":0,\"sms_verification\":\"N\",\"Chart_Number\":null,\"mrn\":\"SQ104318287\",\"history_no\":null,\"company\":null,\"sight\":\"N\",\"hearing\":\"N\",\"wheelchair\":\"N\",\"immobility\":\"N\",\"groupsave\":\"N\",\"learning_disabilities\":\"N\",\"requires_translator\":\"\",\"fainting\":\"N\",\"needle_phobia\":\"N\",\"nhs_number\":null,\"gp_name\":\"\",\"gp_details\":null,\"cost_centre\":null,\"display\":\"Y\",\"callback\":\"N\",\"key_code\":null,\"menopause_stage\":null,\"car_registration\":null,\"national_governing_body\":null,\"event\":null,\"title\":\"Mr\",\"salutation_preference\":\"personal\",\"registration_source\":null,\"ukey\":\"sq-238ac5f4-6758-4459-aa20-87ad7aefab56\",\"ihi_number\":null,\"speech_impairment\":\"N\",\"hoist\":\"N\",\"birth_date_field\":\"14\",\"birth_month_field\":\"09\",\"birth_year_field\":\"1965\",\"age\":58,\"medical_reference_numbers\":[{\"type\":\"MR\",\"key\":\"MC\",\"value\":\"61601813052\"},{\"type\":\"MR\",\"key\":null,\"value\":\"SQ104318287\"}],\"medical_reference_numbers_all\":[{\"user_id\":11813612,\"reference_type\":\"MC\",\"medical_number\":\"61601813052\",\"from_date\":\"2022-07-14\",\"to_date\":null,\"created_at\":\"2024-05-23 09:08:05\"}],\"name\":\"Cedrick Goodwin\",\"address\":\"10596232 Sandpit St, Irishtown, TAS\",\"patient\":\"Cedrick Goodwin\",\"additional_info\":{\"aka_firstname\":\"Geoff\",\"aka_surname\":\"Collins\",\"middlename\":\"Harold\",\"opt_out_result\":\"SMS\",\"own_number\":null,\"screening_cohort\":null,\"speciality_id\":null,\"nationality\":null,\"designated_contact_firstname\":null,\"designated_contact_surname\":null,\"designated_contact_mobile\":null,\"translator_language\":\"English\",\"read_sign_language\":null,\"alternative_number\":null,\"screening_id\":null,\"covid_19_id\":null,\"deceased_date\":null,\"archived_box_number\":null,\"pps_number\":null,\"accessibility\":null,\"covid19status\":null,\"covid19vax\":null,\"infection\":null,\"allergies\":null,\"Marital_Status\":null,\"Religion\":null,\"Insurance_Code\":\"\",\"Policy_No\":\"\",\"Ins_Copay\":null,\"act_as_nok\":0,\"emergency_contact\":0,\"meditech_relationship\":null,\"drug_allergies\":null,\"duplicate_account\":false,\"mfa_code\":null,\"mfa_code_expires_at\":null,\"insurance_company\":null,\"aka_middle_name\":\"\",\"indigenous_status_id\":3},\"formatted_dob\":\"19650914\",\"gp_firstname\":\"\",\"gp_mcn\":\"\",\"custom_fields\":[]},\"referral\":{\"id\":12654475,\"facility_id\":119,\"user_id\":11813612,\"date_referred\":\"2024-04-11 00:00:00\",\"date_limit\":null,\"category_id\":445,\"speciality_id\":649,\"referral_source_id\":410,\"referral_source_name\":\"DR Kelechukwu Onumaegbu\",\"status\":\"assigned\",\"condition\":\"\",\"comments\":\"HL7 Referral\",\"is_staff\":\"N\",\"is_priority\":\"N\",\"modified\":\"2024-04-12 19:57:12\",\"modified_by\":1,\"created\":\"2024-04-11 15:58:18\",\"created_by\":22,\"letter_sent_date\":null,\"assigned_date\":null,\"speciality_group_id\":null,\"document\":null,\"funding\":null,\"authorisation\":0,\"previous_admissions\":null,\"suicide_attempts\":null,\"others_care\":null,\"hear_about_us\":null,\"patient_type\":null,\"created_sms_sent\":1,\"book_appt_sms_num_sent\":0,\"pas_verified\":0,\"seeing_other_mental_health_professional\":null,\"current_medication\":null,\"call_type\":null,\"gp_details_id\":null,\"hopstial\":null,\"last_viewed\":null,\"control_id\":\"7324173\",\"covid_19_id\":null,\"print_label\":null,\"residential_id\":null,\"facility_type\":null,\"referral_type\":null,\"parent_id\":0,\"date_accepted\":null,\"condition_notes_string\":\"\",\"provider_id\":\"0\",\"admission_source\":null,\"pivot\":{\"res_id\":22763952,\"ewaiting_referral_id\":12654475}}}]",
            "Name": "No iPM Res ID"
        },
        {
            "Message": "POST /sandpit-ths-outbound HTTP/1.1\r\nHost: 10.0.1.200:6544\r\nUser-Agent: GuzzleHttp/6.5.5 curl/8.3.0 PHP/7.4.33\r\nContent-Type: application/json\r\nContent-Length: 5871\r\n\r\n[{\"type\":\"appointment\",\"appointment\":{\"id\":22764877,\"parent_id\":null,\"facility_id\":164,\"user_id\":11813956,\"facility_type\":\"f\",\"consultant_id\":0,\"reservation_date\":\"2024-05-23\",\"reservation_time\":\"14:00\",\"reservation_end_time\":\"14:30\",\"reason_id\":5887,\"comments\":null,\"recurrence\":\"N\",\"recurrence_end_date\":\"0000-00-00\",\"date\":\"2024-05-22 16:59:57\",\"status\":\"active\",\"attended_by\":0,\"is_attended\":\"yes\",\"google_cal_id\":null,\"booking_user_id\":0,\"location_pref\":null,\"refer_id\":0,\"source\":\"wl\",\"print\":\"N\",\"stats\":\"y\",\"modified\":null,\"modified_source\":null,\"episode_no\":null,\"notified\":\"N\",\"refer_type\":null,\"cream\":\"N\",\"gp_name\":null,\"secretary\":99,\"quality\":\"Y\",\"hl7_id\":null,\"clinic_referred_from\":null,\"bay\":1,\"capacity_sync\":\"N\",\"is_urgent\":0,\"confirm_date\":null,\"confirmed_by\":null,\"service_provider_id\":null,\"appointment_group\":null,\"auto_marked_dna_at\":null,\"dna_response_token\":null,\"patient_group_id\":null,\"referral_document\":null,\"source_kiosk_facility_id\":null,\"is_additional_consultant_of\":null,\"checkin_code\":548923,\"start\":\"20240523140000\",\"end\":\"20240523143000\",\"duration\":30,\"action_reasons\":[],\"custom_fields\":{\"account_class\":\"Bulk Billed (ORP Patient)\",\"insurance\":\"HIC\"}},\"patient_flow\":{\"check_in_time\":\"false\",\"complete_time\":\"false\",\"current_stage\":null},\"order\":[{\"id\":52179,\"ewaiting_referral_id\":12654524,\"order_id\":0,\"episode_number\":0,\"exam_code\":\"GYC\",\"exam_name\":\"New\",\"res_id\":22764877,\"accession_number\":null,\"created_at\":\"2024-04-15 15:33:09\",\"updated_at\":\"2024-05-22 16:59:57\",\"cancellation_code\":\"\",\"cancellation_date\":null,\"cancellation_processed\":0,\"cancellation_processed_success\":null,\"reschedule_date\":null,\"file_path\":null,\"requires_blood_test\":0,\"normal_business_hours\":0,\"no_cancellation_comms\":0,\"has_previous_appt\":1,\"reschedule_end_time\":null,\"pregnancy\":null,\"deleted_at\":null,\"category_id\":\"\",\"exam_description\":\"\",\"room_id\":\"\"}],\"patient\":{\"id\":11813956,\"mobile\":\"0000000000\",\"home_phone\":\"0000000000\",\"firstname\":\"Sally\",\"surname\":\"Sherman\",\"email\":\"10904244test@sandpit.com\",\"bcrypt_check\":\"n\",\"reactivate_code_sent\":0,\"user_type\":\"N\",\"notify\":0,\"created\":\"2024-01-02 10:18:36\",\"modified\":\"2024-05-21 14:11:08\",\"modified_by\":0,\"status\":\"active\",\"old_password\":null,\"regcode\":null,\"pwd_reset_time\":0,\"is_pwd_expired\":0,\"parent\":0,\"relationship\":null,\"Date_of_Birth\":\"22\\/06\\/1948\",\"Home_Address\":\"7322\",\"Employee_Number\":null,\"paygroup\":null,\"verified\":\"n\",\"online_regcode\":null,\"Gender\":\"F\",\"Address_1\":\"5431248 Sandpit St\",\"Address_2\":\"\",\"Address_3\":\"\",\"Address_4\":\"SOMERSET\",\"Address_5\":\"TAS\",\"country\":null,\"address_coordinates\":null,\"facility_link_id\":0,\"sms_verification\":\"N\",\"Chart_Number\":null,\"mrn\":\"SQ104427256\",\"history_no\":null,\"company\":null,\"sight\":\"N\",\"hearing\":\"N\",\"wheelchair\":\"N\",\"immobility\":\"N\",\"groupsave\":\"N\",\"learning_disabilities\":\"N\",\"requires_translator\":\"\",\"fainting\":\"N\",\"needle_phobia\":\"N\",\"nhs_number\":null,\"gp_name\":\"\",\"gp_details\":null,\"cost_centre\":null,\"display\":\"Y\",\"callback\":\"N\",\"key_code\":null,\"menopause_stage\":null,\"car_registration\":null,\"national_governing_body\":null,\"event\":null,\"title\":\"Mrs\",\"salutation_preference\":\"personal\",\"registration_source\":null,\"ukey\":\"sq-4ecd6a9d-51fc-4be2-ba0b-243a9bceccda\",\"ihi_number\":null,\"speech_impairment\":\"N\",\"hoist\":\"N\",\"birth_date_field\":\"22\",\"birth_month_field\":\"06\",\"birth_year_field\":\"1948\",\"age\":75,\"medical_reference_numbers\":[{\"type\":\"MR\",\"key\":\"MC\",\"value\":\"60363787492\"},{\"type\":\"MR\",\"key\":null,\"value\":\"SQ104427256\"}],\"medical_reference_numbers_all\":[{\"user_id\":11813956,\"reference_type\":\"MC\",\"medical_number\":\"60363787492\",\"from_date\":\"2020-08-08\",\"to_date\":null,\"created_at\":\"2024-05-21 23:11:08\"}],\"name\":\"Sally Sherman\",\"address\":\"5431248 Sandpit St, SOMERSET, TAS\",\"patient\":\"Sally Sherman\",\"additional_info\":{\"aka_firstname\":\"Judi\",\"aka_surname\":\"Rustage\",\"middlename\":\"\",\"opt_out_result\":\"SMS\",\"own_number\":null,\"screening_cohort\":null,\"speciality_id\":null,\"nationality\":null,\"designated_contact_firstname\":null,\"designated_contact_surname\":null,\"designated_contact_mobile\":null,\"translator_language\":\"English\",\"read_sign_language\":null,\"alternative_number\":null,\"screening_id\":null,\"covid_19_id\":null,\"deceased_date\":null,\"archived_box_number\":null,\"pps_number\":null,\"accessibility\":null,\"covid19status\":null,\"covid19vax\":null,\"infection\":null,\"allergies\":null,\"Marital_Status\":null,\"Religion\":null,\"Insurance_Code\":\"\",\"Policy_No\":\"\",\"Ins_Copay\":null,\"act_as_nok\":0,\"emergency_contact\":0,\"meditech_relationship\":null,\"drug_allergies\":null,\"duplicate_account\":false,\"mfa_code\":null,\"mfa_code_expires_at\":null,\"insurance_company\":null,\"aka_middle_name\":\"\",\"indigenous_status_id\":3},\"formatted_dob\":\"19480622\",\"gp_firstname\":\"\",\"gp_mcn\":\"\",\"custom_fields\":[]},\"referral\":{\"id\":12654524,\"facility_id\":119,\"user_id\":11813956,\"date_referred\":\"2023-01-15 00:00:00\",\"date_limit\":null,\"category_id\":447,\"speciality_id\":648,\"referral_source_id\":410,\"referral_source_name\":\"DR Practice Somerset Medical\",\"status\":\"assigned\",\"condition\":\"\",\"comments\":\"HL7 Referral\",\"is_staff\":null,\"is_priority\":null,\"modified\":\"2024-05-22 16:59:57\",\"modified_by\":7,\"created\":\"2024-04-15 14:59:35\",\"created_by\":22,\"letter_sent_date\":null,\"assigned_date\":null,\"speciality_group_id\":null,\"document\":null,\"funding\":null,\"authorisation\":0,\"previous_admissions\":null,\"suicide_attempts\":null,\"others_care\":null,\"hear_about_us\":null,\"patient_type\":null,\"created_sms_sent\":1,\"book_appt_sms_num_sent\":0,\"pas_verified\":0,\"seeing_other_mental_health_professional\":0,\"current_medication\":null,\"call_type\":null,\"gp_details_id\":null,\"hopstial\":null,\"last_viewed\":null,\"control_id\":\"7324210\",\"covid_19_id\":\"1897735\",\"print_label\":null,\"residential_id\":null,\"facility_type\":null,\"referral_type\":null,\"parent_id\":0,\"date_accepted\":null,\"condition_notes_string\":\"\",\"provider_id\":\"0\",\"admission_source\":null,\"pivot\":{\"res_id\":22764877,\"ewaiting_referral_id\":12654524}}}]",
            "Name": ""
        },
        {
            "Message": "POST /sandpit-ths-outbound HTTP/1.1\r\nHost: 10.0.1.200:6544\r\nUser-Agent: GuzzleHttp/6.5.5 curl/8.3.0 PHP/7.4.33\r\nContent-Type: application/json\r\nContent-Length: 5901\r\n\r\n[{\"type\":\"appointment\",\"appointment\":{\"id\":22764877,\"parent_id\":null,\"facility_id\":164,\"user_id\":11813956,\"facility_type\":\"f\",\"consultant_id\":0,\"reservation_date\":\"2024-05-23\",\"reservation_time\":\"14:00\",\"reservation_end_time\":\"14:30\",\"reason_id\":5887,\"comments\":null,\"recurrence\":\"N\",\"recurrence_end_date\":\"0000-00-00\",\"date\":\"2024-05-22 16:59:57\",\"status\":\"active\",\"attended_by\":0,\"is_attended\":\"yes\",\"google_cal_id\":null,\"booking_user_id\":0,\"location_pref\":null,\"refer_id\":0,\"source\":\"wl\",\"print\":\"N\",\"stats\":\"y\",\"modified\":\"2024-05-23 14:07:30\",\"modified_source\":\"b\",\"episode_no\":null,\"notified\":\"N\",\"refer_type\":null,\"cream\":\"N\",\"gp_name\":null,\"secretary\":99,\"quality\":\"Y\",\"hl7_id\":null,\"clinic_referred_from\":null,\"bay\":1,\"capacity_sync\":\"N\",\"is_urgent\":0,\"confirm_date\":null,\"confirmed_by\":null,\"service_provider_id\":null,\"appointment_group\":null,\"auto_marked_dna_at\":null,\"dna_response_token\":null,\"patient_group_id\":null,\"referral_document\":null,\"source_kiosk_facility_id\":null,\"is_additional_consultant_of\":null,\"checkin_code\":548923,\"start\":\"20240523140000\",\"end\":\"20240523143000\",\"duration\":30,\"action_reasons\":[],\"custom_fields\":{\"account_class\":\"Bulk Billed (ORP Patient)\",\"insurance\":\"HIC\"}},\"patient_flow\":{\"check_in_time\":\"20240523140729\",\"complete_time\":\"false\",\"current_stage\":\"CALL-IN\"},\"order\":[{\"id\":52179,\"ewaiting_referral_id\":12654524,\"order_id\":0,\"episode_number\":0,\"exam_code\":\"GYC\",\"exam_name\":\"New\",\"res_id\":22764877,\"accession_number\":null,\"created_at\":\"2024-04-15 15:33:09\",\"updated_at\":\"2024-05-22 16:59:57\",\"cancellation_code\":\"\",\"cancellation_date\":null,\"cancellation_processed\":0,\"cancellation_processed_success\":null,\"reschedule_date\":null,\"file_path\":null,\"requires_blood_test\":0,\"normal_business_hours\":0,\"no_cancellation_comms\":0,\"has_previous_appt\":1,\"reschedule_end_time\":null,\"pregnancy\":null,\"deleted_at\":null,\"category_id\":\"\",\"exam_description\":\"\",\"room_id\":\"\"}],\"patient\":{\"id\":11813956,\"mobile\":\"0000000000\",\"home_phone\":\"0000000000\",\"firstname\":\"Sally\",\"surname\":\"Sherman\",\"email\":\"10904244test@sandpit.com\",\"bcrypt_check\":\"n\",\"reactivate_code_sent\":0,\"user_type\":\"N\",\"notify\":0,\"created\":\"2024-01-02 10:18:36\",\"modified\":\"2024-05-23 01:15:15\",\"modified_by\":0,\"status\":\"active\",\"old_password\":null,\"regcode\":null,\"pwd_reset_time\":0,\"is_pwd_expired\":0,\"parent\":0,\"relationship\":null,\"Date_of_Birth\":\"22\\/06\\/1948\",\"Home_Address\":\"7322\",\"Employee_Number\":null,\"paygroup\":null,\"verified\":\"n\",\"online_regcode\":null,\"Gender\":\"F\",\"Address_1\":\"5431248 Sandpit St\",\"Address_2\":\"\",\"Address_3\":\"\",\"Address_4\":\"SOMERSET\",\"Address_5\":\"TAS\",\"country\":null,\"address_coordinates\":null,\"facility_link_id\":0,\"sms_verification\":\"N\",\"Chart_Number\":null,\"mrn\":\"SQ104427256\",\"history_no\":null,\"company\":null,\"sight\":\"N\",\"hearing\":\"N\",\"wheelchair\":\"N\",\"immobility\":\"N\",\"groupsave\":\"N\",\"learning_disabilities\":\"N\",\"requires_translator\":\"\",\"fainting\":\"N\",\"needle_phobia\":\"N\",\"nhs_number\":null,\"gp_name\":\"\",\"gp_details\":null,\"cost_centre\":null,\"display\":\"Y\",\"callback\":\"N\",\"key_code\":null,\"menopause_stage\":null,\"car_registration\":null,\"national_governing_body\":null,\"event\":null,\"title\":\"Mrs\",\"salutation_preference\":\"personal\",\"registration_source\":null,\"ukey\":\"sq-4ecd6a9d-51fc-4be2-ba0b-243a9bceccda\",\"ihi_number\":null,\"speech_impairment\":\"N\",\"hoist\":\"N\",\"birth_date_field\":\"22\",\"birth_month_field\":\"06\",\"birth_year_field\":\"1948\",\"age\":75,\"medical_reference_numbers\":[{\"type\":\"MR\",\"key\":\"MC\",\"value\":\"60363787492\"},{\"type\":\"MR\",\"key\":null,\"value\":\"SQ104427256\"}],\"medical_reference_numbers_all\":[{\"user_id\":11813956,\"reference_type\":\"MC\",\"medical_number\":\"60363787492\",\"from_date\":\"2020-08-08\",\"to_date\":null,\"created_at\":\"2024-05-23 10:15:15\"}],\"name\":\"Sally Sherman\",\"address\":\"5431248 Sandpit St, SOMERSET, TAS\",\"patient\":\"Sally Sherman\",\"additional_info\":{\"aka_firstname\":\"Judi\",\"aka_surname\":\"Rustage\",\"middlename\":\"\",\"opt_out_result\":\"SMS\",\"own_number\":null,\"screening_cohort\":null,\"speciality_id\":null,\"nationality\":null,\"designated_contact_firstname\":null,\"designated_contact_surname\":null,\"designated_contact_mobile\":null,\"translator_language\":\"English\",\"read_sign_language\":null,\"alternative_number\":null,\"screening_id\":null,\"covid_19_id\":null,\"deceased_date\":null,\"archived_box_number\":null,\"pps_number\":null,\"accessibility\":null,\"covid19status\":null,\"covid19vax\":null,\"infection\":null,\"allergies\":null,\"Marital_Status\":null,\"Religion\":null,\"Insurance_Code\":\"\",\"Policy_No\":\"\",\"Ins_Copay\":null,\"act_as_nok\":0,\"emergency_contact\":0,\"meditech_relationship\":null,\"drug_allergies\":null,\"duplicate_account\":false,\"mfa_code\":null,\"mfa_code_expires_at\":null,\"insurance_company\":null,\"aka_middle_name\":\"\",\"indigenous_status_id\":3},\"formatted_dob\":\"19480622\",\"gp_firstname\":\"\",\"gp_mcn\":\"\",\"custom_fields\":[]},\"referral\":{\"id\":12654524,\"facility_id\":119,\"user_id\":11813956,\"date_referred\":\"2023-01-15 00:00:00\",\"date_limit\":null,\"category_id\":447,\"speciality_id\":648,\"referral_source_id\":410,\"referral_source_name\":\"DR Practice Somerset Medical\",\"status\":\"assigned\",\"condition\":\"\",\"comments\":\"HL7 Referral\",\"is_staff\":null,\"is_priority\":null,\"modified\":\"2024-05-22 16:59:57\",\"modified_by\":7,\"created\":\"2024-04-15 14:59:35\",\"created_by\":22,\"letter_sent_date\":null,\"assigned_date\":null,\"speciality_group_id\":null,\"document\":null,\"funding\":null,\"authorisation\":0,\"previous_admissions\":null,\"suicide_attempts\":null,\"others_care\":null,\"hear_about_us\":null,\"patient_type\":null,\"created_sms_sent\":1,\"book_appt_sms_num_sent\":0,\"pas_verified\":0,\"seeing_other_mental_health_professional\":0,\"current_medication\":null,\"call_type\":null,\"gp_details_id\":null,\"hopstial\":null,\"last_viewed\":null,\"control_id\":\"7324210\",\"covid_19_id\":\"1897735\",\"print_label\":null,\"residential_id\":null,\"facility_type\":null,\"referral_type\":null,\"parent_id\":0,\"date_accepted\":null,\"condition_notes_string\":\"\",\"provider_id\":\"0\",\"admission_source\":null,\"pivot\":{\"res_id\":22764877,\"ewaiting_referral_id\":12654524}}}]",
            "Name": "Missing professional carer"
        }
    ]
}