{
    "LocalDependencies": [],
    "LuaDependencies": [
        "sqConfig",
        "sqDatabase",
        "sqUtils"
    ],
    "OtherDependencies": [],
    "timestamp": "1716472052",
    "version_info": {
        "build": 0,
        "major": 6,
        "minor": 0
    }
}