{
    "Samples": [
        {
            "Message": "MSH|^~\\&|IIEIPM|NWA|||20230704164508||ADT^A04|1146|P|2.4|||AL|NE|||\rEVN|A04|20230704164500||APPAT_I|FEEDERS^iIE Inbound Messaging^^^^^^USERS|\rPID|1||500214679^^^^PAS^^20230517000000~57957821811^^^AUSHIC^MC^^20230517000000||Ann1^Pat1^^^MS^^L||19880101000000|F||4^Neither Aboriginal nor Torres Strait Islander origin^ETHGR|Leve1^16 Test St^Don^TAS^7310^1101^R||0455678765^PRN^PH~test@deda.com^NET^Internet||NSP^Not Specified^SPOKL|M^Married^MARRY|2012^Anglican^RELIG|||||4^Neither Aboriginal nor Torres Strait Islander origin^ETHGR|1101|N||||NSP^Not Specified^NATNL||N|N||20230517144948|||||\rPD1|||HUGHES CLINIC^GPPRC^GPP0722^^^^PRIME|9940^Athey^Lucy^^^DR^PRIME^prof_carers^GPP0722^L^^^MAIN~9940^Athey^Lucy^^^DR^PRIME^prof_carers^GPP0722^L^^^LOCAL~N/A^Athey^Lucy^^^DR^PRIME^prof_carers^NSP^L^^^PROV^GPP0722||||||||\rROL|1642033^PATPC|UC|PP^GP|9940^Athey^Lucy^^^DR|20120304000000||||GMPRC^General Practitioner^PRTYP|||\rNK1|1|Kinsuename^Kin1^^^MS^^L|NSP^Not Specified^RELTN||||NOK^Contact 1 (NOK)^PETYP|20230517|||||||F|20000517000000||||NSP^Not Specified^SPOKL|||||||||||||||||\rPV1|1|O|SQ-TEST1^SQ-TEST1^^^^^^^SQ iPM Test Clinic(NWA)|FU||||9940^Athey^Lucy^^^DR^^^^L^^^MAIN~9940^Athey^Lucy^^^DR^^^^L^^^LOCAL~N/A^Athey^Lucy^^^DR^^^GPP0722^L^^^PROV^GPP0722||||||||||PUB|27524200^^^^VN|||||||||||||||||NSP||||||||20230704164414||||||22759904^^^^SCHDL||\rPV2||||||||20230704164500|||||CHN^Child Health Nurse|||||||||||Attended|||Not Specified||||||||||\rROL|10198^REFRL|UC|RP^Referring Provider|9940^Athey^Lucy|20120304000000||||GMPRC^General Practitioner^PRTYP|||\rROL|10198^REFRL|UC|RT^Referring to Provider|20941^Parameswaran^Nickolas|20230516000000|20231003000000|||OSMP^Other Specialist Medical Practitioner^PRTYP|||\rIN1|1|1463674^^PIMS|OVSF|OVERSEAS HEALTH FUND||||||||20230517|||IOSV|Ann1^Pat1^^^MS^^L||19880101000000|Leve1^16 Test St^Don^TAS^7310^1101^R|||||||||||||||||TEST1|||||||F||||||\r",
            "Name": ""
        }
    ]
}